<?xml version="1.0" encoding="utf-8"?>
<!-- Generator: Adobe Illustrator 22.1.0, SVG Export Plug-In . SVG Version: 6.00 Build 0)  -->
<svg version="1.1" id="Capa_1" xmlns="http://www.w3.org/2000/svg" xmlns:xlink="http://www.w3.org/1999/xlink" x="0px" y="0px"
	 viewBox="0 0 512 512" style="enable-background:new 0 0 512 512;" xml:space="preserve">
<style type="text/css">
	.st0{fill:#F3F6FF;}
	.st1{fill:#CDDBF9;}
	.st2{fill:#AFC2E8;}
	.st3{fill:#3C4A83;}
	.st4{fill:#2A386B;}
	.st5{fill:#ECF0F1;}
	.st6{fill:#BDC3C7;}
	.st7{fill:#C0392B;}
	.st8{fill:#E74C3C;}
</style>
<g>
	<path class="st0" d="M440.5,117v395h-369V0h252l42.2,71.5L440.5,117z"/>
	<path class="st1" d="M440.5,117v395H256V0h67.5l42.2,71.5L440.5,117z"/>
	<path class="st2" d="M323.5,0v117h117L323.5,0z"/>
	<path class="st3" d="M143.5,56.5H285v30H143.5V56.5z"/>
	<path class="st3" d="M143.5,118H285v30H143.5V118z"/>
	<path class="st4" d="M256,56.5h29v30h-29V56.5z"/>
	<path class="st4" d="M256,118h29v30h-29V118z"/>
	<path class="st0" d="M304.7,319.1L256,367.7l-7.9,7.9l-40.8-40.2l21.1-21.4l19.5,19.3l8-8l27.5-27.5L304.7,319.1z"/>
	<path class="st1" d="M304.7,319.1L256,367.7v-42.4l27.5-27.5L304.7,319.1z"/>
</g>
<g transform="translate(0 -1028.4)">
	<path class="st5" d="M153.5,1257.4v114c0,47.9,41.4,91.2,102.6,114c61.2-22.8,102.6-66.1,102.6-114v-114H153.5z"/>
	<path class="st6" d="M256.1,1257.4v228c61.2-22.8,102.6-66.1,102.6-114v-114H256.1z"/>
	<path class="st7" d="M176.3,1280.2v91.2c0,38.8,32.2,73,79.8,91.2c47.6-18.2,79.8-52.4,79.8-91.2v-91.2H176.3z"/>
	<path class="st8" d="M176.3,1280.2v91.2c0,38.8,32.2,73,79.8,91.2v-182.4H176.3z"/>
	<path class="st5" d="M256.1,1348.6l-32.1-33.1l-16.4,17.1l32.4,31.9l-32.4,31.9l16,16l32.4-31.9l32.4,31.9l16-16l-32.4-31.9
		l32.4-33.1l-16-16C288.5,1315.5,256.1,1348.6,256.1,1348.6z"/>
</g>
</svg>
