<?xml version="1.0" encoding="utf-8"?>
<!-- Generator: Adobe Illustrator 24.1.1, SVG Export Plug-In . SVG Version: 6.00 Build 0)  -->
<svg version="1.1" xmlns="http://www.w3.org/2000/svg" xmlns:xlink="http://www.w3.org/1999/xlink" x="0px" y="0px"
	 viewBox="0 0 40.7 40.36" style="enable-background:new 0 0 40.7 40.36;" xml:space="preserve">
<style type="text/css">
	.st0{fill:#ECECEC;}
	.st1{fill:#E1E6ED;}
	.st2{fill:#E0E01A;}
	.st3{fill:url(#SVGID_1_);}
	.st4{fill:#FFFFFF;}
	.st5{fill:url(#SVGID_2_);}
	.st6{fill:url(#SVGID_3_);}
	.st7{fill:url(#SVGID_4_);}
	.st8{opacity:0.3;fill:#FFFFFF;}
	.st9{fill:none;stroke:#D5D7D8;stroke-width:2;stroke-miterlimit:10;}
	.st10{fill:#595959;}
	.st11{fill:none;stroke:#000000;stroke-miterlimit:10;}
	.st12{fill:#202945;}
	.st13{fill:#FEC007;}
	.st14{fill:#465B64;}
	.st15{fill:#465A63;}
	.st16{fill:#324F6D;}
	.st17{fill:none;stroke:#202945;stroke-width:5;stroke-miterlimit:10;}
	.st18{fill:url(#SVGID_11_);}
	.st19{fill:#FFFFFF;stroke:#00DD1A;stroke-miterlimit:10;}
	.st20{fill:none;stroke:#E0E01A;stroke-width:2;stroke-miterlimit:10;}
	.st21{fill:#FFFFFF;stroke:#D1D1D1;stroke-miterlimit:10;}
	.st22{fill:#D09261;}
	.st23{fill:#01953E;}
	.st24{fill:#F9D2A2;}
	.st25{fill:#C78043;}
	.st26{fill:#D09462;}
	.st27{fill:#589A6B;}
	.st28{fill:#699D72;}
	.st29{fill:#63A277;}
	.st30{fill:#A7D0AE;}
	.st31{fill:#A5CFAD;}
	.st32{fill:#5FA174;}
	.st33{fill:#C68044;}
	.st34{fill:#A36327;}
	.st35{fill:#D7D7D5;}
	.st36{fill:#C6C1BE;}
	.st37{fill:#F9DCBA;}
	.st38{fill:none;stroke:#D1D1D1;stroke-width:2;stroke-miterlimit:10;}
	.st39{fill:#00DD1A;}
	.st40{fill:#363E53;}
	.st41{fill:#D5D7D8;}
	.st42{fill:#375974;}
	.st43{fill:none;}
	.st44{fill:none;stroke:#606060;stroke-width:3;stroke-miterlimit:10;}
	.st45{clip-path:url(#SVGID_15_);}
	.st46{opacity:0.06;}
	.st47{fill:#CECECE;}
	.st48{fill:#E1E1E1;}
	.st49{fill:#CFCFD0;}
	.st50{fill:#D1D1D1;}
	.st51{fill:#D7D7D6;}
	.st52{fill:#CCCCCC;}
	.st53{fill:#E8E8E8;}
	.st54{fill:#F2F2F2;}
	.st55{fill:#D5D5D5;}
	.st56{fill:#F0F0F0;}
	.st57{fill:#EFEEEE;}
	.st58{fill:#EBEBEB;}
	.st59{fill:#E2E2E2;}
	.st60{fill:#D4D3D3;}
	.st61{fill:#CDCDCD;}
	.st62{fill:#DEDEDD;}
	.st63{fill:#EAEAEA;}
	.st64{fill:#E9E9E9;}
	.st65{fill:#959595;}
	.st66{fill:#E4E4E3;}
	.st67{fill:#C5C5C5;}
	.st68{fill:#D6D6D6;}
	.st69{fill:#EDECEC;}
	.st70{fill:#E5E5E4;}
	.st71{fill:#E3E3E3;}
	.st72{fill:#C5C4C4;}
	.st73{fill:none;stroke:#F1F1F1;stroke-miterlimit:10;}
	.st74{fill:#B3B3B4;}
	.st75{fill:#7A7A7A;}
	.st76{fill:#D0D1D1;}
	.st77{fill:#8A8A8A;}
	.st78{fill:#686868;}
	.st79{fill:#E7E7E7;}
	.st80{fill:#ABABAB;}
	.st81{fill:#B8B8B9;}
	.st82{fill:#A2A2A2;}
	.st83{fill:#E6E6E6;}
	.st84{fill:#9A9A9A;}
	.st85{fill:#A7A6A6;}
	.st86{fill:#707171;}
	.st87{fill:#A8A8A7;}
	.st88{fill:#8C8C8C;}
	.st89{fill:#939393;}
	.st90{fill:#6B6B6B;}
	.st91{fill:#DFDFDF;}
	.st92{fill:#AAAAAA;}
	.st93{fill:#A0A0A0;}
	.st94{fill:#B4B4B5;}
	.st95{fill:#ADADAD;}
	.st96{fill:#999999;}
	.st97{fill:#B9B9B9;}
	.st98{fill:#B5B5B6;}
	.st99{fill:#7D7D7D;}
	.st100{fill:#BEBDBD;}
	.st101{fill:#BBBBBB;}
	.st102{fill:#656666;}
	.st103{fill:#9C9C9C;}
	.st104{fill:#6A6A6A;}
	.st105{fill:#919191;}
	.st106{fill:#D2D2D2;}
	.st107{fill:#DBDADA;}
	.st108{fill:#BFBFBF;}
	.st109{fill:#B1B1B1;}
	.st110{fill:#808080;}
	.st111{fill:#DAD9D9;}
	.st112{fill:#E0E0E0;}
	.st113{fill:#737374;}
	.st114{fill:#8D8D8D;}
	.st115{fill:#B8B7B8;}
	.st116{fill:#B7B6B7;}
	.st117{fill:#ADADAE;}
	.st118{fill:#D9D8D7;}
	.st119{fill:#C0C0C0;}
	.st120{fill:#807F7F;}
	.st121{fill:#CCCBCB;}
	.st122{fill:#6D6D6D;}
	.st123{fill:#898989;}
	.st124{fill:#888888;}
	.st125{fill:#B0B0B0;}
	.st126{fill:#B2B2B3;}
	.st127{fill:#989898;}
	.st128{clip-path:url(#SVGID_21_);}
	.st129{clip-path:url(#SVGID_27_);}
	.st130{fill:#F8F8F8;}
	.st131{fill:#4B69B0;}
	.st132{fill:#0678B6;}
	.st133{fill:url(#SVGID_30_);}
	.st134{fill:#EC8123;}
	.st135{fill:#515B5A;}
	.st136{fill:#F0A05F;}
	.st137{fill:#FFFFFD;}
	.st138{fill:#525B5A;}
	.st139{fill:#E0DF00;}
	.st140{fill:#A5C53B;}
	.st141{fill:#F8C022;}
	.st142{fill:#8E6F63;}
	.st143{fill:#444442;}
	.st144{fill:#D19C16;}
	.st145{fill:#F3BD24;}
	.st146{clip-path:url(#SVGID_34_);}
	.st147{clip-path:url(#SVGID_40_);}
	.st148{clip-path:url(#SVGID_46_);}
	.st149{clip-path:url(#SVGID_52_);}
	.st150{clip-path:url(#SVGID_58_);}
	.st151{clip-path:url(#SVGID_64_);}
	.st152{fill:url(#SVGID_67_);}
	.st153{fill:url(#SVGID_68_);}
	.st154{opacity:0.65;fill:#FFFFFF;}
	.st155{fill:url(#SVGID_75_);}
	.st156{clip-path:url(#SVGID_79_);}
	.st157{clip-path:url(#SVGID_85_);}
	.st158{clip-path:url(#SVGID_91_);}
	.st159{fill:url(#SVGID_94_);}
	.st160{fill:#F2F0F2;}
	.st161{fill:#00B0D8;}
	.st162{fill:#EE287C;}
	.st163{fill:#231F20;}
	.st164{fill-rule:evenodd;clip-rule:evenodd;fill:#FFFFFF;}
	.st165{fill:url(#SVGID_99_);}
	.st166{fill:url(#SVGID_100_);}
	.st167{fill:url(#SVGID_101_);}
	.st168{fill:url(#SVGID_102_);}
	.st169{fill:#415A68;}
	.st170{fill:#8D9CA4;}
	.st171{fill:url(#SVGID_103_);}
	.st172{opacity:0.85;fill:#FFFFFF;}
	.st173{fill:url(#SVGID_104_);}
	.st174{fill:url(#SVGID_105_);}
	.st175{fill:url(#SVGID_110_);}
	.st176{fill:url(#SVGID_111_);}
	.st177{fill:url(#SVGID_112_);}
	.st178{fill:url(#SVGID_113_);}
	.st179{fill:url(#SVGID_114_);}
	.st180{fill:url(#SVGID_119_);}
</style>
<g id="fondo">
</g>
<g id="Casa">
	<g id="Formularios">
	</g>
	<g id="Simulador">
	</g>
</g>
<g id="Menú">
	<g>
		<g>
			<g>
				
					<ellipse transform="matrix(0.9259 -0.3777 0.3777 0.9259 -6.2589 9.2089)" class="st132" cx="20.35" cy="20.56" rx="18.85" ry="18.85"/>
			</g>
		</g>
		<g>
			<path class="st4" d="M17.49,17.29c0.17-0.35,0.45-0.45,0.83-0.44c0.69,0.02,1.38,0,2.07,0.01c0.78,0,0.87,0.1,0.87,0.88
				c0,0.13,0,0.27,0,0.47c0.09-0.07,0.16-0.11,0.2-0.16c1.27-1.51,2.95-1.57,4.68-1.21c1.65,0.34,2.49,1.56,2.76,3.13
				c0.19,1.09,0.22,2.21,0.25,3.32c0.04,1.55,0.01,3.1,0.01,4.66c0,0.67-0.13,0.8-0.8,0.8c-0.76,0-1.52-0.02-2.28,0.01
				c-0.42,0.02-0.68-0.14-0.8-0.53c-0.01-2.09-0.02-4.18-0.02-6.27c-0.08-1.58-1.28-2.47-2.63-1.92c-0.82,0.34-1.13,1.06-1.3,1.86
				c-0.06,0.29-0.07,0.6-0.08,0.9c-0.01,1.72,0,3.44,0,5.16c0,0.65-0.13,0.78-0.77,0.78c-0.74,0-1.48-0.01-2.23,0.01
				c-0.36,0.01-0.62-0.1-0.78-0.43C17.49,24.64,17.49,20.96,17.49,17.29z"/>
			<path class="st4" d="M15.86,28.22c-0.15,0.41-0.43,0.54-0.86,0.53c-0.71-0.03-1.41,0-2.12-0.01c-0.63,0-0.8-0.17-0.8-0.82
				c0-2.69,0-5.39,0-8.08c0-0.74-0.01-1.48,0-2.22c0.01-0.59,0.17-0.75,0.76-0.76c0.72-0.01,1.45,0.01,2.17-0.01
				c0.43-0.01,0.71,0.13,0.85,0.54C15.86,21,15.86,24.61,15.86,28.22z"/>
			<path class="st4" d="M13.95,10.99c1.36,0,2.42,1.08,2.42,2.44c0,1.31-1.11,2.4-2.43,2.4c-1.33,0-2.43-1.11-2.42-2.46
				C11.52,12.07,12.62,10.99,13.95,10.99z"/>
			<path class="st4" d="M17.49,17.29c0,3.68,0,7.35,0,11.03c-0.04-0.19-0.1-0.39-0.1-0.58c-0.01-3.29-0.01-6.57,0-9.86
				C17.39,17.68,17.45,17.48,17.49,17.29z"/>
			<path class="st4" d="M15.86,28.22c0-3.61,0-7.22,0-10.83c0.04,0.19,0.1,0.39,0.1,0.58c0.01,3.22,0.01,6.44,0,9.66
				C15.96,27.83,15.9,28.02,15.86,28.22z"/>
			<path class="st4" d="M25.27,21.94c0.01,2.09,0.02,4.18,0.02,6.27c-0.04-0.16-0.1-0.32-0.1-0.48c-0.01-1.78-0.01-3.57,0-5.35
				C25.19,22.24,25.24,22.09,25.27,21.94z"/>
		</g>
	</g>
</g>
</svg>
