<?xml version="1.0" encoding="utf-8"?>
<!-- Generator: Adobe Illustrator 24.1.1, SVG Export Plug-In . SVG Version: 6.00 Build 0)  -->
<svg version="1.1" id="Capa_1" xmlns="http://www.w3.org/2000/svg" xmlns:xlink="http://www.w3.org/1999/xlink" x="0px" y="0px"
	 viewBox="0 0 217 41" style="enable-background:new 0 0 217 41;" xml:space="preserve">
<style type="text/css">
	.st0{fill:#202945;}
</style>
<g>
	<g>
		<g>
			<g>
				<path class="st0" d="M20.11,39.63c-0.09,0-0.17,0-0.26,0C10.64,39.48,3.16,31.8,3.16,22.5V10.28c0-4.93,4.01-8.95,8.95-8.95h16
					c4.93,0,8.95,4.01,8.95,8.95v12.4C37.05,32.02,29.45,39.63,20.11,39.63z M12.11,2.88c-4.08,0-7.41,3.32-7.41,7.41V22.5
					c0,8.47,6.8,15.46,15.16,15.58c0.08,0,0.16,0,0.24,0c8.49,0,15.4-6.91,15.4-15.4v-12.4c0-4.08-3.32-7.41-7.41-7.41H12.11z"/>
			</g>
			<g>
				<path class="st0" d="M20.11,35.53c-0.07,0-0.13,0-0.2,0C12.93,35.42,7.25,29.58,7.25,22.5V10.28c0-2.68,2.18-4.85,4.85-4.85h16
					c2.68,0,4.85,2.18,4.85,4.85v12.4c0,3.46-1.36,6.72-3.84,9.15C26.69,34.22,23.5,35.53,20.11,35.53z M12.11,6.97
					c-1.83,0-3.31,1.49-3.31,3.31V22.5c0,6.24,4.99,11.4,11.13,11.49l0,0c3.05,0.05,5.93-1.11,8.11-3.25
					c2.18-2.15,3.38-5.01,3.38-8.05v-12.4c0-1.83-1.49-3.31-3.31-3.31H12.11z"/>
			</g>
			<g>
				<path class="st0" d="M20.11,31.44c-0.07,0-0.14,0-0.21,0c-4.71-0.11-8.55-4.11-8.55-8.9v-9.58c0-1.89,1.54-3.43,3.43-3.43h10.65
					c1.89,0,3.43,1.54,3.43,3.43v9.73c0,2.37-0.94,4.6-2.64,6.26C24.57,30.56,22.41,31.44,20.11,31.44z M14.78,11.06
					c-1.04,0-1.89,0.85-1.89,1.89v9.58c0,3.97,3.16,7.27,7.04,7.36l0,0c1.96,0.05,3.81-0.68,5.21-2.05c1.4-1.37,2.18-3.2,2.18-5.16
					v-9.73c0-1.04-0.85-1.89-1.89-1.89H14.78z"/>
			</g>
			<g>
				<path class="st0" d="M20.11,27.34c-0.06,0-0.12,0-0.18,0c-2.51-0.1-4.48-2.18-4.48-4.75v-6.06c0-1.6,1.3-2.9,2.9-2.9h3.52
					c1.6,0,2.9,1.3,2.9,2.9v6.16c0,1.28-0.51,2.47-1.43,3.36C22.46,26.88,21.32,27.34,20.11,27.34z M18.35,15.16
					c-0.75,0-1.36,0.61-1.36,1.36v6.06c0,1.71,1.34,3.15,3,3.21c0.85,0.03,1.67-0.28,2.28-0.87c0.62-0.59,0.96-1.39,0.96-2.25v-6.16
					c0-0.75-0.61-1.36-1.36-1.36H18.35z"/>
			</g>
			<g>
				<path class="st0" d="M20.11,35.53v-1.54c0.7,0,1.28-0.57,1.28-1.28c0-0.7-0.57-1.28-1.28-1.28v-1.54c1.55,0,2.82,1.26,2.82,2.82
					S21.66,35.53,20.11,35.53z"/>
			</g>
			<g>
				<path class="st0" d="M20.11,15.16v-1.54c0.7,0,1.28-0.57,1.28-1.28c0-0.7-0.57-1.28-1.28-1.28V9.52c1.55,0,2.82,1.26,2.82,2.82
					S21.66,15.16,20.11,15.16z"/>
			</g>
			<g>
				<path class="st0" d="M34.23,21.3c-1.55,0-2.82-1.26-2.82-2.82h1.54c0,0.7,0.57,1.28,1.28,1.28s1.28-0.57,1.28-1.28h1.54
					C37.05,20.04,35.79,21.3,34.23,21.3z"/>
			</g>
			<g>
				<path class="st0" d="M8.8,20.53H7.25c0-0.7-0.57-1.28-1.28-1.28c-0.7,0-1.28,0.57-1.28,1.28H3.16c0-1.55,1.26-2.82,2.82-2.82
					C7.53,17.71,8.8,18.98,8.8,20.53z"/>
			</g>
		</g>
		<g>
			<path class="st0" d="M57.32,7.93c1.55,0.04,3.1,1.09,3.1,3.1c0,2.06-1.51,3.1-3.07,3.14c-1.63,0.04-3.3-1.01-3.3-3.14
				C54.06,8.9,55.69,7.89,57.32,7.93z M59.96,35.12h-5.43V16.65h5.43V35.12z"/>
			<path class="st0" d="M126.42,16.42V29.5c0,1.75,0.08,2.37,1.75,2.25l0.04,3.38c-2.64,0.62-6.83,0.89-6.83-2.72
				c-1.05,2.17-3.65,2.99-5.98,2.99c-5.39,0-6.95-3.61-6.95-8.26V16.42h5.47v10.71c-0.12,2.64,1.32,4,3.22,4
				c2.17,0.04,3.84-1.59,3.84-4.11V16.42H126.42z"/>
			<path class="st0" d="M96.47,16c-2.3,0-4.3,0.76-5.51,2.39c-0.01-1.22-0.02-2.44-0.04-3.66c0-0.45,0-0.91,0-1.36
				c0-0.46-0.03-1.44-0.03-1.9c0-0.82,0.01-1.35,0.03-2.41c0.01-0.63-0.24-1.38-0.73-1.93c-0.75-0.84-1.87-1.2-2.93-1.27
				c-0.61-0.04-1.22-0.01-1.82,0.05c-0.15,0.02-1.69,0.21-1.69,0.3c0,0,0.04,3.38,0.04,3.38c1.11-0.08,1.52,0.18,1.66,0.87v24.67
				h5.47V24.91h0.04c0-0.07,0-0.13,0-0.2c0-0.31,0-0.63,0-0.94c0.28-2.21,1.97-3.51,3.95-3.47c2.02,0,3.57,1.36,3.45,4v10.83h5.47
				V24.3C103.84,19.49,101.82,16,96.47,16z"/>
			<path class="st0" d="M137.63,35.47c-3.49,0-6.67-2.25-6.79-5.86c-0.19-4.58,3.1-6.75,7.26-6.75c1.67,0,3.57,0.31,4.97,1.2v-1.28
				c0-2.29-2.79-2.68-4.66-2.68c-1.98,0-3.8,0.23-5.39,1.13l-0.7-3.88c1.98-0.93,4.5-1.4,7.02-1.4c4.81,0,8.92,1.59,8.92,6.98v6.75
				c0,1.59-0.04,2.52,1.75,2.41l0.04,3.03c-2.83,0.62-5.94,0.47-5.94-2.87C142.99,34.58,140.04,35.47,137.63,35.47z M142.95,27.44
				c-1.09-0.74-2.52-1.09-3.88-1.09c-1.71,0.12-3.1,1.09-2.91,2.91c0.12,1.36,1.32,2.02,2.56,2.02c1.78,0,4.04-0.89,4.23-2.87V27.44
				z"/>
			<g>
				<path class="st0" d="M81.28,35.12h-5.14l-3.38-5.59h-0.12l-3.45,5.59H64l5.28-9.18l-6.21-9.53h6.05L81.28,35.12z"/>
				<path class="st0" d="M78.93,15.37c1.55,0.04,3.1,1.09,3.1,3.1c0,2.06-1.51,3.1-3.07,3.14c-1.63,0.04-3.3-1.01-3.3-3.14
					C75.67,16.34,77.3,15.33,78.93,15.37z"/>
			</g>
			<path class="st0" d="M155.65,30.12c1.28,0.03,2.57,0.9,2.57,2.57c0,1.7-1.25,2.57-2.54,2.6c-1.35,0.03-2.73-0.83-2.73-2.6
				C152.95,30.92,154.3,30.08,155.65,30.12z"/>
		</g>
	</g>
	<g>
		<path class="st0" d="M187.73,35.04V24.32c0.12-2.46-1.15-3.96-3-3.92c-1.88,0.04-3.38,1.5-3.42,3.96v10.68h-5.3V24.36
			c0.04-2.5-1.23-3.99-3.19-3.96c-1.96,0.04-3.65,1.57-3.65,4.07v10.56h-5.34V22.17c0-1.81-0.08-2.42-1.77-2.42v-3.27
			c2.42-0.69,6.68-1.11,6.68,2.57c1-2.11,3.65-2.96,5.95-2.96c3.23,0,4.76,1.11,5.65,3.38c1.11-2.27,3.84-3.38,6.42-3.38
			c5.26,0,6.49,3.73,6.38,8.22v10.72H187.73z"/>
		<path class="st0" d="M205.55,28.51l-2.19,3.69l-2,2.84h-5.38v-0.61l6.42-9.22l-5.49-8.11v-0.58h5.15l1.65,2.42l1.77,3.11h0.12
			l1.73-3.15l1.61-2.38h5.49v0.61l-5.69,8.26l6.26,9.03v0.61h-5.19l-2.07-3l-2.07-3.53H205.55z"/>
	</g>
</g>
</svg>
