<?xml version="1.0" encoding="UTF-8"?>
<svg width="19px" height="17px" viewBox="0 0 19 17" version="1.1" xmlns="http://www.w3.org/2000/svg" xmlns:xlink="http://www.w3.org/1999/xlink">
    <!-- Generator: sketchtool 56 (101010) - https://sketch.com -->
    <g stroke="none" stroke-width="1" fill="none" fill-rule="evenodd">
        <g transform="translate(-90.000000, -171.000000)">
            <g transform="translate(91.000000, 172.000000)">
                <path d="M9.02376954,14.536543 L9.02376954,14.536543 C7.56581679,14.0793383 6.10916324,13.2360312 4.92156482,12.1618186 C4.35522623,11.6493383 3.84203726,11.0320942 3.35306088,10.2745352 C2.13073804,8.3804013 0.220186864,2.02359028 0.0178640291,0.913708389 C-0.0480414827,0.552527287 0.0809348953,0.343472169 0.200580565,0.231621775 C0.641131746,-0.179401847 1.65817899,0.0357950034 2.57684041,0.269771381 L2.74136797,0.311464295 C3.71589553,0.551109964 4.98782466,0.874377681 6.18144671,1.24878713 C6.75782466,1.4296139 7.26971442,1.60689737 7.74581679,1.790795 C11.1814073,3.1188265 14.8821554,4.95673989 16.2806987,8.51587374 C16.7505412,9.71126744 16.7637695,10.879732 16.3205018,11.9890233 C15.7747144,13.3544958 14.4570766,14.4228029 12.8810136,14.7771336 C11.686801,15.0458344 10.3890058,14.9645745 9.02376954,14.536543" id="Fill-3" stroke="#1E2739" fill="#E5E1E6"></path>
                <path d="M14.6880884,6.29790524 C15.1757656,7.5540076 14.5465924,9.66617296 12.8611593,9.38696036 C10.3138758,8.96566115 9.33701915,7.18000541 7.42998216,5.65742734 C3.90799551,2.84547369 1.53891378,1.43949687 0.322736951,1.43949687 C1.66703952,6.02599484 2.73549001,8.93341705 3.52808844,10.1617635 C3.96344277,10.8362911 4.46257663,11.4658186 5.0611593,12.0073541 C7.05863962,13.8140863 10.1067105,15.1875903 12.8354113,14.5740076 C14.2569861,14.2541651 15.5775766,13.2862517 16.1269073,11.9116848 C16.5841121,10.7683777 16.4990727,9.6412517 16.086868,8.59219658 C15.7477735,7.72928319 15.2665924,6.97184225 14.6880884,6.29790524 Z" id="Fill-6" fill="#202945" opacity="0.14953032"></path>
                <path d="M15.9937194,8.37176637 C16.1789163,8.78160889 15.9780884,10.1617635 15.3092302,11.3571572 C14.3645457,13.0455116 11.0656475,11.7015667 9.66297033,10.9085745 C7.6745845,9.78451941 6.1318286,7.96042492 5.13946639,5.92089737 C4.62415143,4.86251154 4.1184034,3.77495248 3.3361593,2.88192099 C2.50501757,1.93373201 1.48789443,1.76256127 0.322736951,1.31232505 C0.324508605,1.32342741 0.323918054,1.33311245 0.326162148,1.34480537 C0.534390495,2.48681324 2.3391908,8.31924382 3.52808844,10.1617635 C3.96344277,10.8362911 4.46257663,11.4658186 5.0611593,12.0073541 C7.05863962,13.8140863 10.1067105,15.1875903 12.8354113,14.5740076 C14.2569861,14.2541651 15.5775766,13.2862517 16.1269073,11.9116848 C16.5841121,10.7683777 16.554743,9.76121519 16.1425383,8.71216007 C16.0967115,8.5959396 16.044743,8.48432543 15.9937194,8.37176637 Z" id="Fill-8" fill="#202945" opacity="0.153004092"></path>
                <path d="M9.86851438,4.67677187 C9.22469548,4.32421281 6.57609933,3.24330851 5.59309555,3.02752944 C5.21957401,2.94553775 5.34545077,3.29610283 5.41943667,3.33452808 C6.46495017,3.877525 7.85985065,4.62085997 9.6041381,5.56453298 C11.0382002,6.52946616 12.3681258,7.42771599 13.5939147,8.25928249 C13.7717311,8.37991183 13.932773,8.20719588 13.8461982,8.04798328 C13.2294265,6.91648722 10.9667034,5.27818919 9.86851438,4.67677187 Z" id="Fill-12" fill="#1E2739"></path>
            </g>
        </g>
    </g>
</svg>