<?xml version="1.0" encoding="utf-8"?>
<!-- Generator: Adobe Illustrator 25.0.0, SVG Export Plug-In . SVG Version: 6.00 Build 0)  -->
<svg version="1.1" id="Capa_1" xmlns="http://www.w3.org/2000/svg" xmlns:xlink="http://www.w3.org/1999/xlink" x="0px" y="0px"
	 viewBox="0 0 64 72" style="enable-background:new 0 0 64 72;" xml:space="preserve">
<style type="text/css">
	.st0{fill:#FFFFFF;}
	.st1{clip-path:url(#SVGID_2_);fill:#EC1C24;}
	.st2{clip-path:url(#SVGID_2_);fill:#EC1D24;}
	.st3{clip-path:url(#SVGID_2_);fill:#EC1E24;}
	.st4{clip-path:url(#SVGID_2_);fill:#EC1F24;}
	.st5{clip-path:url(#SVGID_2_);fill:#EC2024;}
	.st6{clip-path:url(#SVGID_2_);fill:#ED2124;}
	.st7{clip-path:url(#SVGID_2_);fill:#ED2224;}
	.st8{clip-path:url(#SVGID_2_);fill:#ED2324;}
	.st9{clip-path:url(#SVGID_2_);fill:#ED2424;}
	.st10{clip-path:url(#SVGID_2_);fill:#ED2524;}
	.st11{clip-path:url(#SVGID_2_);fill:#ED2624;}
	.st12{clip-path:url(#SVGID_2_);fill:#ED2724;}
	.st13{clip-path:url(#SVGID_2_);fill:#ED2824;}
	.st14{clip-path:url(#SVGID_2_);fill:#ED2924;}
	.st15{clip-path:url(#SVGID_2_);fill:#ED2A24;}
	.st16{clip-path:url(#SVGID_2_);fill:#EE2A24;}
	.st17{clip-path:url(#SVGID_2_);fill:#EE2B24;}
	.st18{clip-path:url(#SVGID_2_);fill:#EE2C24;}
	.st19{clip-path:url(#SVGID_2_);fill:#EE2D24;}
	.st20{clip-path:url(#SVGID_2_);fill:#EE2E24;}
	.st21{clip-path:url(#SVGID_2_);fill:#EE2F24;}
	.st22{clip-path:url(#SVGID_2_);fill:#EE3024;}
	.st23{clip-path:url(#SVGID_2_);fill:#EE3124;}
	.st24{clip-path:url(#SVGID_2_);fill:#EE3224;}
	.st25{clip-path:url(#SVGID_2_);fill:#EE3225;}
	.st26{clip-path:url(#SVGID_2_);fill:#EF3325;}
	.st27{clip-path:url(#SVGID_2_);fill:#EF3425;}
	.st28{clip-path:url(#SVGID_2_);fill:#EF3525;}
	.st29{clip-path:url(#SVGID_2_);fill:#EF3625;}
	.st30{clip-path:url(#SVGID_2_);fill:#EF3725;}
	.st31{clip-path:url(#SVGID_2_);fill:#EF3825;}
	.st32{clip-path:url(#SVGID_2_);fill:#EF3925;}
	.st33{clip-path:url(#SVGID_2_);fill:#EF3A25;}
	.st34{clip-path:url(#SVGID_2_);fill:#EF3B25;}
	.st35{clip-path:url(#SVGID_2_);fill:#EF3C25;}
	.st36{clip-path:url(#SVGID_2_);fill:#F03D25;}
	.st37{clip-path:url(#SVGID_2_);fill:#F03E25;}
	.st38{clip-path:url(#SVGID_2_);fill:#F03F25;}
	.st39{clip-path:url(#SVGID_2_);fill:#F04025;}
	.st40{clip-path:url(#SVGID_2_);fill:#F04125;}
	.st41{clip-path:url(#SVGID_2_);fill:#F04225;}
	.st42{clip-path:url(#SVGID_2_);fill:#F04325;}
	.st43{clip-path:url(#SVGID_2_);fill:#F04425;}
	.st44{clip-path:url(#SVGID_2_);fill:#F04525;}
	.st45{clip-path:url(#SVGID_2_);fill:#F14625;}
	.st46{clip-path:url(#SVGID_2_);fill:#F14725;}
	.st47{clip-path:url(#SVGID_2_);fill:#F14825;}
	.st48{clip-path:url(#SVGID_2_);fill:#F14925;}
	.st49{clip-path:url(#SVGID_2_);fill:#F14A25;}
	.st50{clip-path:url(#SVGID_2_);fill:#F14B25;}
	.st51{clip-path:url(#SVGID_2_);fill:#F14C25;}
	.st52{clip-path:url(#SVGID_2_);fill:#F14D25;}
	.st53{clip-path:url(#SVGID_2_);fill:#F14E25;}
	.st54{clip-path:url(#SVGID_2_);fill:#F24F25;}
	.st55{clip-path:url(#SVGID_2_);fill:#F25025;}
	.st56{clip-path:url(#SVGID_2_);fill:#F25125;}
	.st57{clip-path:url(#SVGID_2_);fill:#F25225;}
	.st58{clip-path:url(#SVGID_2_);fill:#F25325;}
	.st59{clip-path:url(#SVGID_2_);fill:#F25425;}
	.st60{clip-path:url(#SVGID_2_);fill:#F25525;}
	.st61{clip-path:url(#SVGID_2_);fill:#F25625;}
	.st62{clip-path:url(#SVGID_2_);fill:#F25725;}
	.st63{clip-path:url(#SVGID_2_);fill:#F35825;}
	.st64{clip-path:url(#SVGID_2_);fill:#F35925;}
	.st65{clip-path:url(#SVGID_2_);fill:#F35A25;}
	.st66{clip-path:url(#SVGID_2_);fill:#F35C25;}
	.st67{clip-path:url(#SVGID_2_);fill:#F35D25;}
	.st68{clip-path:url(#SVGID_2_);fill:#F35E26;}
	.st69{clip-path:url(#SVGID_2_);fill:#F35F26;}
	.st70{clip-path:url(#SVGID_2_);fill:#F36026;}
	.st71{clip-path:url(#SVGID_2_);fill:#F46126;}
	.st72{clip-path:url(#SVGID_2_);fill:#F46226;}
	.st73{clip-path:url(#SVGID_2_);fill:#F46426;}
	.st74{clip-path:url(#SVGID_2_);fill:#F46526;}
	.st75{clip-path:url(#SVGID_2_);fill:#F46626;}
	.st76{clip-path:url(#SVGID_2_);fill:#F46726;}
	.st77{clip-path:url(#SVGID_2_);fill:#F46826;}
	.st78{clip-path:url(#SVGID_2_);fill:#F46A26;}
	.st79{clip-path:url(#SVGID_2_);fill:#F56B26;}
	.st80{clip-path:url(#SVGID_2_);fill:#F56C26;}
	.st81{clip-path:url(#SVGID_2_);fill:#F56D26;}
	.st82{clip-path:url(#SVGID_2_);fill:#F56F26;}
	.st83{clip-path:url(#SVGID_2_);fill:#F57026;}
	.st84{clip-path:url(#SVGID_2_);fill:#F57126;}
	.st85{clip-path:url(#SVGID_2_);fill:#F57226;}
	.st86{clip-path:url(#SVGID_2_);fill:#F67426;}
	.st87{clip-path:url(#SVGID_2_);fill:#F67526;}
	.st88{clip-path:url(#SVGID_2_);fill:#F67626;}
	.st89{clip-path:url(#SVGID_2_);fill:#F67726;}
	.st90{clip-path:url(#SVGID_2_);fill:#F67926;}
	.st91{clip-path:url(#SVGID_2_);fill:#F67A26;}
	.st92{clip-path:url(#SVGID_2_);fill:#F67B26;}
	.st93{clip-path:url(#SVGID_2_);fill:#F77D26;}
	.st94{clip-path:url(#SVGID_2_);fill:#F77E26;}
	.st95{clip-path:url(#SVGID_2_);fill:#F77F26;}
	.st96{clip-path:url(#SVGID_2_);fill:#F78126;}
	.st97{clip-path:url(#SVGID_2_);fill:#F78226;}
	.st98{clip-path:url(#SVGID_2_);fill:#F78426;}
	.st99{clip-path:url(#SVGID_2_);fill:#F78526;}
	.st100{clip-path:url(#SVGID_2_);fill:#F88626;}
	.st101{clip-path:url(#SVGID_2_);fill:#F88826;}
	.st102{clip-path:url(#SVGID_2_);fill:#F88927;}
	.st103{clip-path:url(#SVGID_2_);fill:#F88A27;}
	.st104{clip-path:url(#SVGID_2_);fill:#F88C27;}
	.st105{clip-path:url(#SVGID_2_);fill:#F88D27;}
	.st106{clip-path:url(#SVGID_2_);fill:#F98F27;}
	.st107{clip-path:url(#SVGID_2_);fill:#F99027;}
	.st108{clip-path:url(#SVGID_2_);fill:#F99227;}
	.st109{clip-path:url(#SVGID_2_);fill:#F99327;}
	.st110{clip-path:url(#SVGID_2_);fill:#F99427;}
	.st111{clip-path:url(#SVGID_2_);fill:#F99627;}
	.st112{clip-path:url(#SVGID_2_);fill:#F99727;}
	.st113{clip-path:url(#SVGID_2_);fill:#FA9927;}
	.st114{clip-path:url(#SVGID_2_);fill:#FA9A27;}
	.st115{clip-path:url(#SVGID_2_);fill:#FA9C27;}
	.st116{clip-path:url(#SVGID_2_);fill:#FA9D27;}
	.st117{clip-path:url(#SVGID_2_);fill:#FA9F27;}
	.st118{clip-path:url(#SVGID_2_);fill:#FAA027;}
	.st119{clip-path:url(#SVGID_2_);fill:#FBA227;}
	.st120{clip-path:url(#SVGID_2_);fill:#FBA327;}
	.st121{clip-path:url(#SVGID_2_);fill:#FBA527;}
	.st122{clip-path:url(#SVGID_2_);fill:#FBA627;}
	.st123{clip-path:url(#SVGID_2_);fill:#FBA827;}
	.st124{clip-path:url(#SVGID_2_);fill:#FBAA27;}
	.st125{clip-path:url(#SVGID_2_);fill:#FCAB27;}
	.st126{clip-path:url(#SVGID_2_);fill:#FCAD27;}
	.st127{clip-path:url(#SVGID_2_);fill:#FCAE27;}
	.st128{clip-path:url(#SVGID_2_);fill:#FCB027;}
	.st129{clip-path:url(#SVGID_2_);fill:#FCB127;}
	.st130{clip-path:url(#SVGID_2_);fill:#FCB327;}
	.st131{clip-path:url(#SVGID_2_);fill:#FDB528;}
	.st132{clip-path:url(#SVGID_2_);fill:#FDB628;}
	.st133{clip-path:url(#SVGID_2_);fill:#FDB828;}
	.st134{clip-path:url(#SVGID_2_);fill:#FDB928;}
	.st135{clip-path:url(#SVGID_2_);fill:#FDBB28;}
	.st136{clip-path:url(#SVGID_2_);fill:#FEBD28;}
	.st137{clip-path:url(#SVGID_2_);fill:#FEBE28;}
	.st138{clip-path:url(#SVGID_2_);fill:#FEC028;}
	.st139{clip-path:url(#SVGID_2_);fill:#FEC228;}
	.st140{clip-path:url(#SVGID_2_);fill:#FEC328;}
	.st141{clip-path:url(#SVGID_2_);fill:#FEC528;}
	.st142{clip-path:url(#SVGID_2_);fill:#FFC728;}
	.st143{clip-path:url(#SVGID_2_);fill:#FFC828;}
	.st144{clip-path:url(#SVGID_2_);fill:#FFCA28;}
	.st145{opacity:0.5;}
	.st146{opacity:0.3;}
	.st147{fill:#371A45;}
	.st148{fill:#FFD553;}
	.st149{opacity:0.3;fill:#0B43CE;}
	.st150{fill:#033ECF;}
	.st151{fill:#0B43CE;}
	.st152{opacity:0.25;}
	.st153{fill:#00CC90;}
	.st154{opacity:0.6;}
	.st155{opacity:0.35;}
	.st156{fill:#F1333A;}
	.st157{fill:#D25658;}
	.st158{opacity:0.2;}
	.st159{fill:#00267C;}
	.st160{opacity:0.7;}
	.st161{fill:#111A28;}
	.st162{fill:#22A7F0;}
	.st163{fill:#031879;}
	.st164{fill:#4A83FF;}
	.st165{opacity:0.35;fill:#0B43CE;}
	.st166{opacity:0.35;fill:#031879;}
	.st167{fill:none;stroke:#293856;stroke-width:32.8772;stroke-linecap:round;stroke-linejoin:round;stroke-miterlimit:10;}
	.st168{fill:#32B1D1;}
	.st169{fill:#575B5A;}
	.st170{fill:#A34F31;}
	.st171{fill:#6B184E;}
	.st172{fill:#BF943D;}
	.st173{fill:#062493;}
	.st174{opacity:0.34;}
	.st175{fill:none;stroke:#293856;stroke-width:33.2973;stroke-linecap:round;stroke-miterlimit:10;}
	.st176{opacity:0.34;fill:#111A28;}
	.st177{fill:#848484;}
	.st178{fill:#CE2E2E;}
	.st179{fill:#F2C3B1;}
	.st180{fill:#C48469;}
	.st181{fill:#FF4583;}
	.st182{fill:#F2CF3D;}
	.st183{fill:#21C995;}
	.st184{opacity:0.15;}
	.st185{fill:none;stroke:#371A45;stroke-width:25.9844;stroke-linecap:round;stroke-miterlimit:10;}
	.st186{fill:#7849F2;}
	.st187{fill:#FFD39F;}
	.st188{fill:#293856;}
</style>
<g>
	<g>
		<g>
			<g>
				<path class="st0" d="M63.05,45.02c-0.12-0.56-0.53-1-1.08-1.17l-11.15-3.46c0,0,0,0,0,0l-0.01,0c-0.07-0.02-0.14-0.03-0.21-0.01
					l-2.68,0.58c0.31-0.45,0.51-0.97,0.57-1.57c0.25-2.26-0.22-5.64-1.1-8.3c0.2-0.11,0.41-0.22,0.61-0.34
					c0.64-0.38,1.24-0.83,1.79-1.35c0.55-0.52,1.03-1.12,1.4-1.79c0.09-0.17,0.18-0.34,0.26-0.51l0.11-0.26l0.1-0.26
					c0.13-0.35,0.24-0.72,0.32-1.09c0.08-0.37,0.12-0.76,0.12-1.15c0-0.39-0.05-0.79-0.17-1.18c-0.12-0.39-0.32-0.76-0.59-1.08
					c-0.27-0.32-0.62-0.57-1-0.74c-0.38-0.17-0.79-0.25-1.18-0.27c-0.1-0.01-0.2,0-0.3-0.01c-0.1,0.01-0.21,0.01-0.31,0.02
					c-0.21,0.03-0.41,0.07-0.6,0.14c-0.39,0.14-0.73,0.34-1.04,0.56c-0.31,0.22-0.6,0.46-0.87,0.69c-0.55,0.47-1.08,0.95-1.64,1.4
					c-0.43,0.36-0.87,0.7-1.33,1.02c0.22-0.49,0.39-1.07,0.49-1.75l0-0.02c0.08-1-0.06-1.81-0.33-2.43
					c-0.29-1.16-0.91-1.95-1.64-2.39c-0.25-1.44-0.75-2.89-1.5-4.31l-0.02-0.03c-2.15-3.36-5.08-5.49-8.46-6.17
					c-3-0.6-6.18-0.02-8.95,1.65c-1,0.6-1.9,1.31-2.69,2.12c-0.02,0.02-0.03,0.03-0.05,0.05c-0.06,0.06-0.11,0.12-0.16,0.17
					c-0.27,0.29-0.53,0.59-0.77,0.9c-0.92,1.18-1.62,2.5-2.06,3.92c-0.59,1.89-0.69,3.85-0.31,5.81c-0.45-0.24-0.89-0.38-1.35-0.39
					c-1.29-0.03-2.29,0.45-2.82,1.36c-0.53,0.91-0.8,2.64,0.98,5.67c1.6,2.71,4.21,4.62,7.55,5.52c1.44,0.38,2.71,0.51,3.55,0.54
					c0,0.43,0,0.84-0.01,1.23c-0.23,0.1-0.44,0.25-0.6,0.44c-0.29,0.34-0.43,0.77-0.4,1.22c0.04,0.56,0.35,1.03,0.8,1.3
					c-0.05,0.42-0.09,0.75-0.13,0.97c-3.38-0.23-4.82,2.82-5.28,4.11c-0.82-0.59-2.53-1.67-3.74-1.52
					c-0.92,0.11-1.66,0.62-2.09,1.43c-0.58,1.09-0.48,2.54,0.26,3.96c0.04,0.08,0.08,0.16,0.13,0.24l-0.07,0.02
					c-0.02-0.01-0.03-0.03-0.05-0.04c-0.7-0.47-1.62-0.62-2.53-0.42c-0.97,0.21-1.75,0.78-2.17,1.5l-2.19,0.48
					c-3.87,0.84-6.34,4.68-5.49,8.55c0.41,1.88,1.52,3.48,3.14,4.52c1.17,0.75,2.51,1.14,3.87,1.14c0.51,0,1.03-0.06,1.55-0.17
					l2.2-0.48c0.49,0.35,1.12,0.54,1.81,0.54c0.26,0,0.52-0.03,0.78-0.09h0c0.9-0.2,1.68-0.72,2.12-1.44
					c0.01-0.02,0.02-0.04,0.03-0.06l37.23-8.12c0.04-0.01,0.08-0.03,0.12-0.05c0.01-0.01,0.02-0.01,0.03-0.02
					c0.01,0,0.01-0.01,0.02-0.01l0,0c0,0,0.01-0.01,0.01-0.01c0,0,0,0,0.01,0l8.7-7.78c0,0,0,0,0,0
					C62.99,46.15,63.18,45.58,63.05,45.02z"/>
			</g>
			<g>
				<path class="st0" d="M7.95,65c-1.52,0-3-0.44-4.29-1.26c-1.79-1.15-3.03-2.93-3.48-5.01c-0.45-2.08-0.07-4.21,1.08-6
					s2.93-3.03,5-3.48l1.88-0.41c0.57-0.78,1.45-1.35,2.48-1.57c0.49-0.11,0.98-0.13,1.46-0.07c-0.31-1.19-0.21-2.33,0.29-3.29
					c0.55-1.04,1.5-1.7,2.68-1.84c1.09-0.13,2.39,0.46,3.48,1.13c0.68-1.39,2.13-3.49,4.8-3.71c-0.36-0.4-0.58-0.91-0.62-1.45
					c-0.05-0.65,0.16-1.29,0.59-1.79c0.13-0.15,0.27-0.28,0.43-0.39c0-0.01,0-0.03,0-0.04c-0.81-0.07-1.84-0.22-2.97-0.52
					c-3.55-0.95-6.32-2.98-8.02-5.87c-1.09-1.85-2.15-4.48-0.98-6.45c0.67-1.14,1.95-1.78,3.51-1.74c0.13,0,0.26,0.01,0.39,0.03
					c-0.15-1.67,0.02-3.32,0.52-4.91c0.46-1.49,1.2-2.9,2.19-4.16c0.25-0.33,0.53-0.65,0.82-0.95l0.03-0.03
					c0.05-0.05,0.09-0.1,0.14-0.15L19.41,11c0.84-0.85,1.8-1.61,2.84-2.24c2.94-1.76,6.32-2.38,9.51-1.74
					c3.6,0.72,6.7,2.97,8.97,6.52l0.05,0.09c0.73,1.38,1.24,2.79,1.52,4.21c0.8,0.59,1.38,1.5,1.67,2.6
					c0.3,0.71,0.43,1.53,0.39,2.46c0.22-0.19,0.44-0.38,0.67-0.57c0.17-0.15,0.34-0.29,0.51-0.44c0.28-0.24,0.59-0.49,0.93-0.74
					c0.42-0.3,0.83-0.52,1.23-0.66c0.22-0.08,0.46-0.14,0.76-0.18l0.01,0c0.11-0.01,0.22-0.02,0.31-0.02l0.08,0l0.03,0
					c0.1,0,0.21,0,0.34,0.01c0.53,0.03,1.01,0.15,1.44,0.34c0.48,0.21,0.92,0.54,1.27,0.94c0.34,0.4,0.59,0.87,0.74,1.37
					c0.14,0.43,0.21,0.9,0.21,1.4c0,0.42-0.04,0.86-0.14,1.31c-0.08,0.39-0.2,0.8-0.35,1.21l-0.12,0.3l-0.12,0.29
					c-0.06,0.12-0.12,0.25-0.19,0.37l-0.09,0.18c-0.39,0.71-0.91,1.37-1.54,1.97c-0.55,0.53-1.2,1.01-1.93,1.45
					c-0.03,0.02-0.05,0.03-0.08,0.05c0.8,2.71,1.17,5.85,0.94,8.01c-0.02,0.14-0.04,0.27-0.06,0.41l1.23-0.27
					c0.2-0.04,0.41-0.03,0.61,0.03l0.01,0L62.2,43.1c0.82,0.25,1.43,0.91,1.61,1.75c0.18,0.84-0.09,1.69-0.73,2.27l-8.71,7.8
					l-0.04,0.03c-0.03,0.02-0.06,0.04-0.08,0.06c-0.02,0.01-0.04,0.03-0.06,0.04c-0.12,0.07-0.23,0.12-0.35,0.14l-36.92,8.05
					c-0.57,0.78-1.45,1.34-2.47,1.56c-0.31,0.07-0.63,0.1-0.95,0.1c-0.71,0-1.37-0.17-1.95-0.49l-1.89,0.41
					C9.1,64.94,8.53,65,7.95,65z M11.57,48.72c-0.2,0-0.4,0.02-0.61,0.07c-0.73,0.16-1.34,0.57-1.66,1.13l-0.17,0.3L6.6,50.77
					c-3.45,0.75-5.65,4.17-4.9,7.63c0.36,1.67,1.36,3.1,2.8,4.03c1.04,0.67,2.23,1.02,3.45,1.02c0.46,0,0.92-0.05,1.38-0.15
					l2.54-0.55l0.28,0.2c0.52,0.36,1.26,0.49,1.97,0.34c0.69-0.15,1.28-0.54,1.62-1.08c0.01-0.02,0.02-0.04,0.03-0.05l0.17-0.29
					l37.46-8.17l8.63-7.73c0.22-0.2,0.31-0.48,0.25-0.77c-0.06-0.29-0.26-0.51-0.55-0.6l-11.07-3.43l-4.48,0.98l1.09-1.61
					c0.25-0.37,0.39-0.77,0.44-1.22c0.23-2.09-0.21-5.37-1.06-7.97l-0.2-0.62l0.58-0.31c0.23-0.12,0.41-0.22,0.57-0.32
					c0.63-0.38,1.18-0.8,1.65-1.24c0.51-0.49,0.93-1.02,1.25-1.59l0.07-0.15c0.05-0.11,0.11-0.21,0.16-0.32l0.1-0.23l0.1-0.25
					c0.12-0.32,0.22-0.65,0.28-0.97c0.07-0.34,0.11-0.68,0.11-0.99c0-0.34-0.05-0.66-0.14-0.95c-0.09-0.3-0.24-0.58-0.44-0.81
					c-0.19-0.22-0.44-0.41-0.71-0.53l-0.01-0.01c-0.25-0.11-0.56-0.18-0.91-0.21c-0.06,0-0.1,0-0.15,0c-0.03,0-0.06,0-0.09,0
					l-0.02,0c-0.07,0-0.14,0.01-0.2,0.01c-0.18,0.03-0.32,0.06-0.43,0.1l-0.02,0.01c-0.27,0.09-0.54,0.24-0.85,0.46
					c-0.29,0.21-0.57,0.44-0.82,0.65c-0.17,0.14-0.33,0.29-0.5,0.43c-0.37,0.32-0.76,0.66-1.15,0.97c-0.43,0.36-0.89,0.71-1.36,1.05
					l-2.38,1.71l1.21-2.67c0.2-0.44,0.34-0.95,0.42-1.52c0.06-0.81-0.03-1.5-0.27-2.05l-0.03-0.06l-0.02-0.06
					c-0.28-1.11-0.86-1.65-1.29-1.91l-0.3-0.18l-0.06-0.35c-0.24-1.36-0.71-2.73-1.42-4.07v0c-2.04-3.17-4.78-5.18-7.95-5.82
					c-2.81-0.56-5.79-0.01-8.4,1.55c-0.93,0.56-1.78,1.23-2.54,2l-0.05,0.05c-0.03,0.03-0.07,0.08-0.11,0.12l-0.04,0.04
					c-0.26,0.27-0.5,0.55-0.72,0.84c-0.87,1.12-1.52,2.36-1.93,3.67c-0.55,1.76-0.64,3.59-0.29,5.44l0.3,1.6l-1.44-0.76
					c-0.37-0.19-0.68-0.29-1-0.3c-0.99-0.02-1.75,0.32-2.13,0.97c-0.61,1.03-0.26,2.77,0.98,4.88c1.49,2.53,3.94,4.32,7.08,5.16
					c1.38,0.37,2.6,0.48,3.38,0.51l0.75,0.03l0,0.75c0,0.42,0,0.84-0.02,1.25l-0.01,0.5l-0.45,0.2c-0.13,0.05-0.23,0.13-0.32,0.24
					c-0.16,0.18-0.23,0.41-0.21,0.65c0.02,0.29,0.18,0.55,0.43,0.7l0.42,0.26l-0.06,0.49c-0.05,0.45-0.1,0.8-0.13,1l-0.11,0.71
					l-0.71-0.05c-2.85-0.19-4.09,2.45-4.49,3.59l-0.34,0.98L18.45,45c-1.31-0.93-2.54-1.47-3.2-1.39c-0.67,0.08-1.18,0.43-1.49,1.02
					c-0.46,0.86-0.36,2.04,0.26,3.23c0.04,0.08,0.08,0.15,0.12,0.22l0.5,0.91l-1.43,0.31l-0.28-0.2c-0.02-0.01-0.03-0.02-0.05-0.03
					C12.51,48.85,12.05,48.72,11.57,48.72z M53.51,53.66C53.51,53.66,53.51,53.66,53.51,53.66L53.51,53.66z M50.78,41.13
					L50.78,41.13C50.78,41.13,50.78,41.13,50.78,41.13z"/>
			</g>
		</g>
		<g>
			<g>
				<g>
					<g>
						<path class="st0" d="M27.9,30.42l-1.64,2.99l-0.7,1.28c0,0-0.23,0.02-0.64,0.01c-1.97-0.02-8.03-0.55-11.16-5.87
							c-2.59-4.4-1.01-6.48,1.49-6.43c0.6,0.01,1.17,0.28,1.81,0.74c1.56,1.11,3.51,3.33,7.27,5.51
							C25.37,29.25,26.55,29.85,27.9,30.42z"/>
					</g>
				</g>
			</g>
			<g>
				<g>
					<g>
						<path class="st150" d="M17.32,32.83c-0.12,0-0.23-0.07-0.27-0.18c-0.06-0.15,0.01-0.32,0.16-0.39l0,0
							c0.14-0.06,3.44-1.51,3.76-5.85c0.01-0.16,0.16-0.28,0.32-0.27c0.16,0.01,0.28,0.15,0.27,0.32c-0.35,4.72-3.97,6.29-4.13,6.35
							C17.4,32.83,17.36,32.83,17.32,32.83z"/>
					</g>
				</g>
			</g>
			<g>
				<g>
					<g class="st155">
						<path class="st151" d="M27.9,30.42l-1.64,2.99l-0.7,1.28c0,0-0.23,0.02-0.64,0.01c-1.97-0.02-8.03-0.55-11.16-5.87
							c-1.19-2.03-1.5-3.57-1.24-4.63c0.16,0.84,0.55,1.85,1.24,3.02c3.13,5.32,9.18,5.85,11.16,5.87c0.41,0,0.64-0.01,0.64-0.01
							l0.7-1.28l0.93-1.69C27.42,30.22,27.66,30.32,27.9,30.42z"/>
					</g>
				</g>
			</g>
			<g>
				<g>
					<g>
						<path class="st150" d="M25.06,35.1c-0.77,0-2.3-0.07-4.09-0.55c-3.34-0.89-5.96-2.8-7.55-5.52c-1.78-3.03-1.52-4.75-0.98-5.67
							c0.53-0.9,1.54-1.39,2.82-1.36c1.22,0.03,2.27,0.94,3.73,2.21c1.88,1.64,4.46,3.89,9.07,5.84c0.2,0.09,0.29,0.32,0.21,0.52
							c-0.09,0.2-0.32,0.29-0.52,0.21c-4.72-2-7.35-4.3-9.28-5.97c-1.38-1.2-2.29-1.99-3.22-2.01c-0.99-0.02-1.75,0.32-2.13,0.97
							c-0.6,1.03-0.26,2.76,0.98,4.87c1.51,2.56,3.88,4.29,7.05,5.15c2.39,0.64,4.36,0.52,4.38,0.52c0.22-0.02,0.41,0.15,0.42,0.37
							c0.01,0.22-0.15,0.41-0.37,0.42C25.56,35.09,25.38,35.1,25.06,35.1z"/>
					</g>
				</g>
			</g>
			<g>
				<g>
					<g>
						<path class="st0" d="M41.72,44.94c-1.53,1.75-4.61,2.2-5.39,3.38c-0.69,1.04-0.44,2.36-0.38,3.75
							c0.06,1.19-0.15,2.74-1.15,4.09c-1.51,2.04-4.38,2.25-5.94,0.95c-1.78-1.48,0.43-5.2,0.75-5.66c0,0-0.49-0.6-0.94-1.13
							c-0.33-0.39-0.56-0.95-0.68-1.58c-3.6-0.2-6.47,2.7-8.38,3.21c-2.12,0.57-4.41-0.94-5.95-3.9c-1.27-2.43-0.34-4.59,1.53-4.81
							c1.43-0.17,3.91,1.78,3.91,1.78s1.12-4.91,5.4-4.33c0,0,0.47-2.42,0.41-5.98c-0.01-0.56-0.03-1.14-0.07-1.75
							c-0.08-1.34-0.24-2.79-0.52-4.31c-0.03-0.16-0.06-0.33-0.1-0.49l13.47-0.92c0.24,0.27,0.46,0.54,0.68,0.81
							c0.21,0.26,0.41,0.52,0.6,0.78c0.95,1.29,1.72,2.63,2.32,3.95C43.64,37.95,43.44,42.97,41.72,44.94z"/>
					</g>
				</g>
			</g>
			<g>
				<g>
					<g>
						<path class="st0" d="M30.33,49.32c-4.7-2.08-8.41,2.02-10.71,2.64c-2.12,0.57-4.41-0.94-5.95-3.9
							c-0.47-0.91-0.64-1.78-0.57-2.52c0.12-1.25,0.92-2.15,2.1-2.29c1.43-0.17,3.91,1.78,3.91,1.78s1.12-4.91,5.4-4.33
							c0,0,1.1-5.73-0.27-12.53l4.37,15.16L30.33,49.32z"/>
					</g>
				</g>
			</g>
			<g class="st155">
				<g>
					<g>
						<path class="st151" d="M30.33,49.32c-4.7-2.08-8.41,2.02-10.71,2.64c-2.12,0.57-4.41-0.94-5.95-3.9
							c-0.47-0.91-0.64-1.78-0.57-2.52c2.05,3.49,8.88,0.56,10.36-0.66c1.38-1.14,5.23-2.28,7.92-2.21L30.33,49.32z"/>
					</g>
				</g>
			</g>
			<g>
				<g>
					<g>
						<path class="st150" d="M24.48,49.74c-0.01,0-0.03,0-0.04,0c-0.16-0.02-0.27-0.17-0.25-0.34c0.76-5.19-3.35-7.31-3.4-7.33
							c-0.15-0.07-0.21-0.25-0.13-0.4c0.07-0.15,0.25-0.21,0.4-0.13c0.05,0.02,1.16,0.59,2.18,1.85c0.94,1.17,1.97,3.17,1.54,6.1
							C24.75,49.64,24.62,49.74,24.48,49.74z"/>
					</g>
				</g>
			</g>
			<g>
				<g>
					<g>
						<path class="st150" d="M18.72,52.47c-1.99,0-3.99-1.54-5.39-4.24c-0.74-1.42-0.83-2.86-0.26-3.96
							c0.43-0.81,1.17-1.32,2.09-1.43c1.21-0.15,2.92,0.94,3.74,1.52c0.45-1.29,1.9-4.34,5.28-4.11c0.21-1.34,0.82-6.33-0.33-12.02
							c-0.04-0.21,0.09-0.42,0.31-0.46c0.21-0.04,0.42,0.09,0.46,0.31c1.38,6.8,0.29,12.63,0.27,12.68l-0.07,0.37l-0.37-0.05
							c-3.86-0.52-4.91,3.84-4.96,4.03l-0.14,0.61l-0.49-0.38c-0.65-0.52-2.58-1.82-3.62-1.7c-0.65,0.08-1.18,0.44-1.48,1.01
							c-0.45,0.86-0.36,2.04,0.26,3.23c1.46,2.81,3.57,4.23,5.5,3.71c0.59-0.16,1.32-0.59,2.16-1.09c2.21-1.31,5.24-3.1,8.81-1.53
							c0.2,0.09,0.29,0.32,0.2,0.52c-0.09,0.2-0.32,0.29-0.52,0.2c-3.19-1.41-5.91,0.2-8.09,1.49c-0.89,0.53-1.66,0.98-2.36,1.17
							C19.39,52.43,19.05,52.47,18.72,52.47z"/>
					</g>
				</g>
			</g>
			<g>
				<g>
					<g>
						<g>
							<path class="st156" d="M11.05,49.41l-4.53,0.99c-3.67,0.8-5.99,4.42-5.19,8.08l0,0c0.8,3.67,4.42,5.99,8.08,5.19l4.53-0.99
								L11.05,49.41z"/>
						</g>
					</g>
				</g>
				<g class="st154">
					<g>
						<g>
							<path class="st0" d="M13.94,62.41l-0.12,0.02l-2.48-11.39l-4.53,0.99c-3.2,0.7-5.38,3.55-5.35,6.71
								c-0.05-0.17-0.1-0.35-0.14-0.53c-0.8-3.67,1.52-7.28,5.19-8.08l4.53-0.99L13.94,62.41z"/>
						</g>
					</g>
				</g>
				<g>
					<g class="st146">
						<g>
							<g>
								<path class="st151" d="M1.62,57.31c0.02,0.09,0.03,0.17,0.05,0.26c0.4,1.83,1.5,3.33,2.97,4.27
									c1.46,0.94,3.28,1.32,5.12,0.92l4.01-0.88l-0.62-2.84l-4.53,0.99C5.87,60.63,3.15,59.47,1.62,57.31
									C1.62,57.31,1.62,57.31,1.62,57.31z"/>
							</g>
						</g>
					</g>
				</g>
				<g>
					<g>
						<g>
							<path class="st150" d="M7.95,64.22c-1.36,0-2.7-0.39-3.87-1.14c-1.62-1.04-2.73-2.64-3.14-4.52
								c-0.84-3.87,1.62-7.71,5.49-8.55l4.53-0.99c0.1-0.02,0.21,0,0.3,0.05c0.09,0.06,0.15,0.15,0.17,0.25l2.89,13.27
								c0.05,0.21-0.09,0.42-0.3,0.47L9.5,64.05C8.98,64.17,8.47,64.22,7.95,64.22z M10.75,49.88l-4.14,0.9
								c-3.45,0.75-5.64,4.17-4.89,7.61c0.36,1.67,1.36,3.1,2.79,4.02c1.44,0.92,3.15,1.23,4.82,0.87l4.14-0.9L10.75,49.88z"/>
						</g>
					</g>
				</g>
				<g>
					<g>
						<g>
							
								<rect x="13.22" y="44.79" transform="matrix(0.977 -0.2131 0.2131 0.977 -10.2358 8.1955)" class="st186" width="39.37" height="13.59"/>
						</g>
					</g>
				</g>
				<g class="st145">
					<g>
						<g>
							<polygon class="st0" points="50.97,42.09 53.59,54.04 53.87,53.98 50.97,40.72 12.4,49.09 12.69,50.4 							"/>
						</g>
					</g>
				</g>
				<g class="st155">
					<g>
						<g>
							<polygon class="st151" points="52.71,49.99 14.24,58.38 14.99,61.81 14.92,61.48 53.25,53.13 52.57,50.02 52.71,49.99 
								53.59,54.04 15.12,62.42 15.12,62.42 53.59,54.04 							"/>
						</g>
					</g>
				</g>
				<g>
					<g>
						<g>
							<path class="st150" d="M15.12,62.82c-0.07,0-0.15-0.02-0.21-0.06c-0.09-0.06-0.15-0.15-0.17-0.25l-2.9-13.28
								c-0.05-0.21,0.09-0.42,0.3-0.47l38.47-8.39c0.07-0.02,0.14-0.01,0.21,0.01l0.02,0c0.14,0.05,0.24,0.17,0.27,0.31
								c0.02,0.15-0.04,0.29-0.16,0.38c-0.68,0.49-1,1.33-0.82,2.15c0.09,0.4,0.29,0.76,0.57,1.04c0.17,0.17,0.26,0.4,0.26,0.63
								c-0.01,0.24-0.11,0.45-0.29,0.61c-0.66,0.59-0.96,1.5-0.77,2.37c0.19,0.87,0.84,1.57,1.69,1.83
								c0.23,0.07,0.41,0.22,0.51,0.44c0.1,0.21,0.11,0.46,0.03,0.68c-0.14,0.38-0.17,0.79-0.09,1.19c0.18,0.82,0.82,1.45,1.64,1.61
								c0.15,0.03,0.27,0.14,0.31,0.29c0.04,0.15-0.02,0.3-0.14,0.4l0,0c-0.05,0.04-0.11,0.07-0.17,0.09l-38.47,8.39
								C15.18,62.82,15.15,62.82,15.12,62.82z M12.7,49.44l2.73,12.51l36.94-8.06c-0.55-0.41-0.95-1.01-1.1-1.71
								c-0.12-0.55-0.08-1.11,0.12-1.64c0.01-0.03,0-0.05,0-0.06c-0.01-0.02-0.02-0.03-0.04-0.03c-1.12-0.34-1.98-1.27-2.23-2.42
								c-0.25-1.15,0.14-2.34,1.02-3.12c0.01-0.01,0.02-0.03,0.02-0.04c0-0.01,0-0.03-0.02-0.05c-0.4-0.39-0.67-0.89-0.79-1.44
								c-0.15-0.7-0.04-1.41,0.29-2.01L12.7,49.44z"/>
						</g>
					</g>
				</g>
				<g>
					<g>
						<g>
							<path class="st187" d="M62.3,46.24l-1.88,1.68l-3.85,3.44l-2.98,2.66c-0.94-0.19-1.73-0.92-1.95-1.92
								c-0.11-0.49-0.06-0.98,0.1-1.41c0.06-0.17,0.03-0.35-0.09-0.48c-0.05-0.06-0.12-0.1-0.2-0.13c-0.96-0.29-1.73-1.08-1.96-2.12
								c-0.23-1.04,0.15-2.08,0.89-2.74c0.2-0.18,0.2-0.48,0.01-0.67c-0.33-0.33-0.58-0.75-0.68-1.24c-0.22-1,0.2-1.99,0.98-2.55
								l3.81,1.18l4.93,1.53l2.41,0.75c0.34,0.1,0.59,0.34,0.72,0.62C62.79,45.29,62.72,45.86,62.3,46.24z"/>
						</g>
					</g>
				</g>
				<g class="st160">
					<g>
						<g>
							<path class="st0" d="M62.48,46.03c0,0,0-0.01-0.01-0.01c-0.13-0.28-0.38-0.52-0.72-0.62l-2.41-0.75l-4.93-1.53l-3.81-1.18
								c-0.42,0.31-0.74,0.74-0.9,1.23c-0.15-0.95,0.26-1.87,1-2.41l3.81,1.18l4.93,1.53l2.41,0.75c0.34,0.1,0.59,0.34,0.72,0.62
								C62.75,45.21,62.74,45.67,62.48,46.03z"/>
						</g>
					</g>
				</g>
				<g>
					<g class="st146">
						<g>
							<g>
								<path class="st151" d="M52.01,52.96c0.27,0.18,0.58,0.31,0.91,0.38l2.98-2.66l4.08-3.36l1.64-1.76
									c0.11-0.1,0.2-0.21,0.26-0.33l0.03-0.02l-6.97,3.83c-0.93,0.51-1.93,0.89-2.97,1.11l-0.3,0.07
									c0.11,0.12,0.15,0.31,0.09,0.48c-0.17,0.44-0.21,0.92-0.1,1.41c0.09,0.39,0.26,0.74,0.5,1.03
									C52.1,53.09,52.05,53.03,52.01,52.96z"/>
							</g>
						</g>
					</g>
				</g>
				<g>
					<g>
						<g>
							<path class="st150" d="M62.3,46.24l-1.88,1.68c-0.52-0.48-0.94-1.21-1.13-2.09c-0.19-0.87-0.12-1.71,0.15-2.36l2.41,0.75
								C62.74,44.49,62.99,45.62,62.3,46.24z"/>
						</g>
					</g>
				</g>
				<g>
					<g>
						<g>
							<path class="st150" d="M53.6,54.42c-0.03,0-0.05,0-0.08-0.01c-1.13-0.23-2.01-1.1-2.26-2.22c-0.12-0.55-0.08-1.11,0.12-1.64
								c0.01-0.03,0-0.05,0-0.06c-0.01-0.02-0.02-0.03-0.04-0.03c-1.12-0.34-1.98-1.27-2.23-2.42c-0.25-1.15,0.14-2.34,1.02-3.12
								c0.01-0.01,0.02-0.03,0.02-0.04c0-0.01,0-0.03-0.02-0.05c-0.4-0.39-0.67-0.89-0.79-1.44c-0.25-1.12,0.2-2.28,1.13-2.96
								c0.1-0.07,0.23-0.09,0.35-0.06l11.15,3.46c0.55,0.17,0.96,0.61,1.08,1.17c0.12,0.57-0.06,1.13-0.49,1.52c0,0,0,0,0,0
								l-8.7,7.78C53.79,54.39,53.7,54.42,53.6,54.42z M50.79,41.2c-0.57,0.5-0.84,1.28-0.67,2.03c0.09,0.4,0.29,0.76,0.57,1.04
								c0.17,0.17,0.26,0.4,0.26,0.63c-0.01,0.24-0.11,0.45-0.29,0.61c-0.66,0.59-0.96,1.5-0.77,2.37c0.19,0.87,0.84,1.57,1.69,1.83
								c0.23,0.07,0.41,0.22,0.51,0.44c0.1,0.21,0.11,0.46,0.03,0.68c-0.14,0.38-0.17,0.79-0.09,1.19c0.16,0.75,0.73,1.35,1.46,1.57
								l8.54-7.65l0,0c0.22-0.19,0.31-0.48,0.25-0.76c-0.06-0.28-0.26-0.5-0.54-0.59L50.79,41.2z M62.3,46.24L62.3,46.24L62.3,46.24
								z"/>
						</g>
					</g>
				</g>
				<g>
					<g>
						<g>
							<path class="st153" d="M14.22,63.7c-1.45,0.32-2.85-0.38-3.15-1.58c-0.38-1.51-0.88-3.6-1.29-5.49
								c-0.41-1.89-0.82-3.99-1.11-5.53c-0.23-1.21,0.75-2.43,2.2-2.75h0c1.5-0.33,2.93,0.43,3.17,1.69
								c0.29,1.52,0.69,3.58,1.09,5.42c0.4,1.84,0.89,3.88,1.27,5.38C16.7,62.08,15.72,63.37,14.22,63.7L14.22,63.7z"/>
						</g>
					</g>
				</g>
				<g class="st154">
					<g>
						<g>
							<path class="st0" d="M14.16,50.68c-0.47-0.65-1.31-1.04-2.25-1.04c-0.24,0-0.49,0.02-0.73,0.08
								c-1.29,0.28-2.22,1.24-2.34,2.3c-0.06-0.32-0.12-0.62-0.17-0.91c-0.23-1.21,0.75-2.43,2.2-2.75c0.24-0.05,0.47-0.08,0.7-0.08
								c1.22,0,2.27,0.71,2.47,1.76C14.08,50.25,14.12,50.46,14.16,50.68z"/>
						</g>
					</g>
				</g>
				<g>
					<g class="st146">
						<g>
							<g>
								<path class="st147" d="M9.69,56.08c0.01,0.03,0.01,0.05,0.02,0.08C9.7,56.14,9.69,56.11,9.69,56.08z"/>
							</g>
						</g>
					</g>
					<g class="st146">
						<g>
							<g>
								<path class="st147" d="M9.6,55.74C9.6,55.74,9.6,55.74,9.6,55.74C9.6,55.74,9.6,55.74,9.6,55.74z"/>
							</g>
						</g>
					</g>
					<g class="st146">
						<g>
							<g>
								<path class="st147" d="M9.51,55.32c0.01,0.02,0.01,0.05,0.02,0.07C9.52,55.37,9.51,55.35,9.51,55.32z"/>
							</g>
						</g>
					</g>
					<g class="st146">
						<g>
							<g>
								<path class="st147" d="M9.86,56.83c0.01,0.02,0.01,0.05,0.02,0.07C9.88,56.88,9.87,56.86,9.86,56.83z"/>
							</g>
						</g>
					</g>
					<g class="st146">
						<g>
							<g>
								<path class="st147" d="M16.16,59.88c-0.14-0.57-0.29-1.17-0.43-1.8v0C15.87,58.71,16.02,59.32,16.16,59.88z"/>
							</g>
						</g>
					</g>
					<g class="st146">
						<g>
							<g>
								<path class="st147" d="M11.07,62.12c-0.01-0.03-0.02-0.07-0.03-0.1C11.05,62.05,11.06,62.09,11.07,62.12
									c0.09,0.37,0.29,0.69,0.56,0.95C11.36,62.81,11.16,62.49,11.07,62.12z"/>
							</g>
						</g>
					</g>
					<g class="st146">
						<g>
							<g>
								<path class="st147" d="M10.04,57.57c0,0.01,0.01,0.02,0.01,0.03C10.05,57.59,10.04,57.58,10.04,57.57z"/>
							</g>
						</g>
					</g>
					<g class="st146">
						<g>
							<g>
								<path class="st151" d="M10.85,61.24c0.31,1.17,1.7,1.86,3.14,1.55c1.5-0.33,2.49-1.62,2.18-2.85
									c-0.14-0.55-0.29-1.17-0.45-1.82c0,0,0-0.01,0-0.01c-0.06,1.04-0.96,2-2.23,2.27c-1.45,0.32-2.85-0.38-3.15-1.58
									c-0.07-0.27-0.14-0.57-0.22-0.87c0-0.01-0.01-0.02-0.01-0.04c-0.18-0.71-0.38-1.54-0.59-2.42c-0.03-0.17-0.07-0.33-0.1-0.5
									c0,0,0,0,0,0c0.12,0.56,0.23,1.12,0.35,1.66c0.34,1.55,0.74,3.24,1.08,4.63C10.86,61.26,10.85,61.25,10.85,61.24z"/>
							</g>
						</g>
					</g>
					<g class="st146">
						<g>
							<g>
								<path class="st147" d="M12.98,63.73c0.39,0.07,0.81,0.07,1.23-0.03c0.33-0.07,0.63-0.19,0.9-0.34
									c-0.27,0.15-0.57,0.27-0.9,0.34C13.79,63.79,13.37,63.8,12.98,63.73z"/>
							</g>
						</g>
					</g>
					<g class="st146">
						<g>
							<g>
								<path class="st147" d="M12.5,63.6c-0.1-0.04-0.2-0.08-0.29-0.12C12.3,63.52,12.4,63.56,12.5,63.6z"/>
							</g>
						</g>
					</g>
					<g class="st146">
						<g>
							<g>
								<path class="st147" d="M15.34,63.22c-0.07,0.05-0.15,0.1-0.22,0.14C15.2,63.31,15.27,63.27,15.34,63.22z"/>
							</g>
						</g>
					</g>
					<g class="st146">
						<g>
							<g>
								<path class="st147" d="M10.94,61.61c-0.01-0.04-0.02-0.08-0.03-0.12C10.92,61.53,10.93,61.57,10.94,61.61z"/>
							</g>
						</g>
					</g>
					<g class="st146">
						<g>
							<g>
								<path class="st147" d="M15.55,63.06c-0.07,0.05-0.13,0.11-0.21,0.16C15.42,63.17,15.48,63.12,15.55,63.06z"/>
							</g>
						</g>
					</g>
					<g class="st146">
						<g>
							<g>
								<path class="st147" d="M11.01,61.88c-0.01-0.04-0.02-0.08-0.03-0.12C10.99,61.8,11,61.84,11.01,61.88z"/>
							</g>
						</g>
					</g>
					<g class="st146">
						<g>
							<g>
								<path class="st147" d="M11.64,63.08c0.08,0.08,0.17,0.14,0.26,0.21C11.81,63.22,11.72,63.15,11.64,63.08z"/>
							</g>
						</g>
					</g>
				</g>
				<g class="st152">
					<g>
						<g>
							<path class="st147" d="M14.03,49.99c0,0.02,0.01,0.04,0.01,0.06c0.2,1.08,0.46,2.41,0.74,3.76
								c-0.13-0.56-0.25-1.12-0.37-1.66c-0.19-0.86-0.37-1.76-0.55-2.63C13.93,49.67,13.99,49.82,14.03,49.99z"/>
						</g>
					</g>
				</g>
				<g class="st152">
					<g>
						<g>
							<path class="st147" d="M15.67,57.53c0.05,0.19,0.06,0.37,0.05,0.56c-0.2-0.86-0.41-1.76-0.6-2.62
								c-0.12-0.54-0.24-1.1-0.35-1.66C15.08,55.14,15.41,56.46,15.67,57.53z"/>
						</g>
					</g>
				</g>
				<g>
					<g>
						<g>
							<path class="st150" d="M13.51,64.12c-1.33,0-2.48-0.75-2.77-1.92c-0.36-1.45-0.88-3.58-1.3-5.5
								c-0.42-1.92-0.83-4.07-1.11-5.54c-0.26-1.4,0.82-2.78,2.47-3.14c0.9-0.2,1.82-0.04,2.53,0.42c0.56,0.37,0.94,0.92,1.05,1.54
								c0.27,1.43,0.68,3.53,1.09,5.41c0.41,1.88,0.91,3.96,1.27,5.37c0.15,0.61,0.04,1.26-0.32,1.83
								c-0.44,0.72-1.22,1.24-2.12,1.44h0C14.02,64.09,13.76,64.12,13.51,64.12z M14.22,63.7L14.22,63.7L14.22,63.7z M11.57,48.63
								c-0.21,0-0.42,0.02-0.63,0.07C9.68,48.97,8.81,50.02,9,51.04c0.27,1.46,0.69,3.6,1.11,5.52c0.42,1.91,0.93,4.03,1.29,5.48
								c0.25,1.01,1.48,1.6,2.74,1.33l0,0c0.72-0.16,1.34-0.57,1.69-1.13c0.26-0.42,0.34-0.87,0.23-1.31
								c-0.35-1.42-0.86-3.5-1.27-5.39c-0.41-1.89-0.82-3.99-1.09-5.43c-0.08-0.44-0.34-0.82-0.76-1.09
								C12.56,48.76,12.08,48.63,11.57,48.63z"/>
						</g>
					</g>
				</g>
			</g>
			<g>
				<g>
					<g>
						<path class="st0" d="M45.05,27.65c1.81,1.36,3.48,7.83,3.06,11.69c-0.42,3.86-7.24,4.15-11.14,4.02
							c-3.9-0.13-3.89-8.94-3.84-11.31C33.21,28.37,42.37,25.64,45.05,27.65z"/>
					</g>
				</g>
			</g>
			<g class="st155">
				<g>
					<g>
						<path class="st151" d="M36.97,43.36c3.9,0.13,10.72-0.16,11.14-4.02c0.05-0.51,0.07-1.06,0.06-1.63
							c-1.08,0.85-2.58,0.09-2.76-0.94c-1.12-6.39-3.5-8.85-4.65-9.69c-3.51,0.49-7.58,2.52-7.63,4.98
							C33.08,34.42,33.07,43.24,36.97,43.36z"/>
					</g>
				</g>
			</g>
			<g>
				<g>
					<g>
						<path class="st150" d="M38.33,43.78c-0.46,0-0.92-0.01-1.37-0.02c-3.89-0.12-4.31-7.39-4.22-11.71
							c0.03-1.49,1.31-2.92,3.59-4.03c2.88-1.4,7.12-2.06,8.96-0.68l0,0c2.07,1.55,3.62,8.32,3.21,12.05
							C48.12,42.94,43.03,43.78,38.33,43.78z M42.29,27.36c-1.68,0-3.78,0.48-5.61,1.37c-1.98,0.96-3.13,2.18-3.15,3.34
							c-0.05,2.53,0.03,10.79,3.45,10.9c3.85,0.12,10.36-0.19,10.74-3.67c0.4-3.72-1.22-10.07-2.9-11.33l0,0
							C44.27,27.55,43.36,27.36,42.29,27.36z"/>
					</g>
				</g>
			</g>
			<g>
				<g>
					<g>
						<path class="st0" d="M44.67,34.12l1.73-0.69c0.39-0.16,0.83,0.07,0.94,0.47c0.36,1.4,0.92,4.31-0.49,4.91
							c-1.71,0.72-2.32-1.25-2.62-3.96C44.2,34.54,44.38,34.24,44.67,34.12z"/>
					</g>
				</g>
			</g>
			<g class="st152">
				<g>
					<g>
						<path class="st151" d="M44.24,34.84c0.29,2.71,0.9,4.69,2.61,3.97c0.7-0.29,0.92-1.16,0.91-2.13
							c-0.14,0.28-0.35,0.49-0.63,0.61c-1.53,0.64-2.18-0.87-2.5-3.15C44.36,34.27,44.21,34.55,44.24,34.84z"/>
					</g>
				</g>
			</g>
			<g>
				<g>
					<g>
						<path class="st150" d="M46.19,39.36c-0.27,0-0.53-0.07-0.76-0.21c-0.83-0.49-1.31-1.77-1.58-4.26
							c-0.05-0.49,0.23-0.95,0.69-1.13l1.73-0.69c0.29-0.12,0.62-0.1,0.9,0.04c0.28,0.14,0.48,0.4,0.56,0.7
							c0.54,2.08,0.84,4.71-0.73,5.37C46.71,39.3,46.44,39.36,46.19,39.36z M46.67,33.78c-0.03,0-0.07,0.01-0.11,0.02l-1.73,0.69
							c-0.13,0.05-0.21,0.18-0.19,0.32c0.09,0.78,0.34,3.17,1.19,3.67c0.23,0.14,0.51,0.13,0.87-0.02c0.94-0.39,0.75-2.55,0.27-4.44
							c-0.03-0.12-0.11-0.17-0.16-0.2C46.78,33.8,46.73,33.78,46.67,33.78z M44.68,34.12L44.68,34.12L44.68,34.12z"/>
					</g>
				</g>
			</g>
			<g>
				<g>
					<g>
						<path class="st147" d="M45.6,28.41c-0.42,0.13-0.85,0.26-1.27,0.4c-0.42,0.14-0.84,0.28-1.26,0.44l0,0
							c-0.1,0.04-0.22-0.01-0.25-0.12c-0.03-0.09,0.01-0.2,0.09-0.24c0.4-0.22,0.8-0.42,1.2-0.63c0.4-0.2,0.81-0.4,1.21-0.59
							c0.2-0.09,0.43-0.01,0.53,0.19c0.09,0.2,0.01,0.43-0.19,0.53C45.64,28.4,45.62,28.4,45.6,28.41L45.6,28.41z"/>
					</g>
				</g>
			</g>
			<g>
				<g>
					<g>
						<path class="st0" d="M24.78,31.27l-0.55-3.12C24.5,29.22,24.67,30.26,24.78,31.27z"/>
					</g>
				</g>
			</g>
			<g>
				<g>
					<g>
						<path class="st0" d="M28.24,36.55c-1.75-0.53,4.29,5.56,2.63,6.32c-0.58,0.26-1.13,0.61-1.59,1.07
							c-1.68,1.67-1.73,5.02-0.59,6.38c0.45,0.54,0.94,1.13,0.94,1.13c-0.32,0.46-2.53,4.18-0.75,5.66c1.55,1.3,4.42,1.08,5.94-0.96
							c1-1.35,1.2-2.9,1.15-4.09c-0.07-1.39-0.31-2.71,0.38-3.75c0.79-1.18,3.86-1.63,5.39-3.38c2.34-2.68,1.86-11.05-4.02-17.7"/>
					</g>
				</g>
			</g>
			<g>
				<g>
					<g>
						<path class="st0" d="M36.19,42.56c-1.75-0.53-3.66-0.44-5.32,0.32c-0.58,0.26-1.13,0.61-1.59,1.07
							c-1.68,1.67-1.73,5.02-0.59,6.38c0.45,0.54,0.94,1.13,0.94,1.13c-0.32,0.46-2.53,4.18-0.75,5.66c1.55,1.3,4.42,1.08,5.94-0.96
							c1-1.35,1.2-2.9,1.15-4.09c-0.07-1.39-0.31-2.71,0.38-3.75c0.79-1.18,3.86-1.63,5.39-3.38c2.34-2.68,1.86-11.05-4.02-17.7
							L36.19,42.56z"/>
					</g>
				</g>
			</g>
			<g class="st155">
				<g>
					<g>
						<path class="st151" d="M41.72,44.94c-1.53,1.75-4.61,2.2-5.39,3.38c-0.69,1.04-0.44,2.36-0.38,3.75
							c0.06,1.19-0.15,2.74-1.15,4.09c-1.51,2.04-4.38,2.25-5.94,0.95c-0.28-0.23-0.46-0.52-0.57-0.85c1.74,0.93,4.6,1.09,5.92-0.69
							c1-1.35,0.54-3.09,0.48-4.28c-0.07-1.39-0.57-3.38,0.4-4.51c1.55-1.81,3.85-0.87,5.38-2.62c2.17-2.49,1.92-9.88-2.83-16.24
							l0.07-0.68C43.58,33.89,44.06,42.26,41.72,44.94z"/>
					</g>
				</g>
			</g>
			<g>
				<g>
					<g>
						<path class="st150" d="M36.15,42.68c-0.33-0.04-0.64-0.08-0.96-0.1c-0.32-0.02-0.63-0.03-0.95-0.02
							c-0.31,0.01-0.63,0.03-0.93,0.07c-0.31,0.04-0.62,0.09-0.92,0.16c-0.15,0.03-0.3,0.08-0.45,0.12
							c-0.15,0.05-0.29,0.09-0.44,0.15c-0.29,0.11-0.57,0.23-0.84,0.38c-0.27,0.14-0.53,0.31-0.76,0.49
							c-0.12,0.09-0.23,0.19-0.34,0.29c-0.05,0.05-0.1,0.1-0.15,0.16c-0.05,0.06-0.1,0.11-0.14,0.17c-0.37,0.46-0.62,1.03-0.78,1.61
							c-0.16,0.59-0.22,1.21-0.18,1.83c0.04,0.61,0.17,1.22,0.44,1.72c0.07,0.12,0.15,0.24,0.23,0.34l0.31,0.38l0.63,0.76l0.19,0.23
							l-0.17,0.25c-0.06,0.08-0.12,0.19-0.18,0.28c-0.06,0.1-0.12,0.2-0.17,0.31c-0.11,0.21-0.22,0.42-0.32,0.63
							c-0.2,0.43-0.37,0.86-0.5,1.31c-0.12,0.44-0.21,0.89-0.2,1.32c0.01,0.43,0.12,0.83,0.37,1.11l0.05,0.05
							c0.02,0.02,0.03,0.03,0.05,0.05c0.04,0.03,0.06,0.07,0.11,0.1c0.09,0.06,0.17,0.13,0.26,0.19c0.09,0.05,0.19,0.11,0.28,0.16
							l0.3,0.13c0.41,0.15,0.85,0.22,1.29,0.22c0.44,0,0.89-0.08,1.31-0.22c0.42-0.14,0.81-0.36,1.16-0.64
							c0.7-0.54,1.19-1.35,1.49-2.2c0.14-0.43,0.24-0.88,0.28-1.34c0.02-0.23,0.03-0.46,0.03-0.69c0-0.12,0-0.23-0.01-0.35
							l-0.02-0.36c-0.03-0.48-0.08-0.97-0.08-1.48c0-0.26,0.01-0.52,0.05-0.78c0.03-0.26,0.1-0.53,0.2-0.79
							c0.02-0.07,0.05-0.13,0.08-0.19c0.03-0.06,0.06-0.13,0.1-0.19l0.11-0.18c0.04-0.06,0.09-0.13,0.14-0.18
							c0.2-0.23,0.42-0.4,0.64-0.54c0.45-0.29,0.9-0.49,1.35-0.7c0.89-0.4,1.77-0.78,2.52-1.31c0.37-0.27,0.71-0.57,0.96-0.92
							c0.26-0.35,0.45-0.77,0.6-1.2c0.15-0.43,0.25-0.89,0.32-1.35c0.07-0.46,0.1-0.93,0.12-1.4c0.02-0.94-0.07-1.9-0.22-2.83
							c-0.33-1.88-0.95-3.71-1.8-5.42c-0.42-0.86-0.95-1.66-1.46-2.46c-0.52-0.8-1.06-1.59-1.54-2.46l0,0
							c-0.04-0.07-0.01-0.15,0.05-0.18c0.05-0.03,0.1-0.02,0.14,0.01c0.81,0.59,1.46,1.35,2.03,2.16c0.57,0.81,1.04,1.69,1.48,2.58
							c0.88,1.78,1.53,3.67,1.87,5.64c0.16,0.98,0.25,1.98,0.24,2.98c-0.01,0.5-0.05,1-0.12,1.51c-0.08,0.5-0.19,1-0.36,1.49
							c-0.17,0.49-0.39,0.97-0.7,1.41c-0.32,0.44-0.72,0.8-1.14,1.1c-0.84,0.6-1.77,0.99-2.65,1.39c-0.44,0.2-0.87,0.4-1.25,0.64
							c-0.19,0.12-0.35,0.25-0.47,0.39c-0.03,0.04-0.05,0.07-0.08,0.11l-0.08,0.13c-0.03,0.04-0.05,0.09-0.07,0.14
							c-0.02,0.05-0.04,0.09-0.06,0.14c-0.15,0.39-0.19,0.83-0.19,1.29c0,0.46,0.04,0.94,0.08,1.43l0.02,0.37
							c0,0.13,0.01,0.26,0.01,0.38c0,0.26-0.01,0.51-0.04,0.77c-0.05,0.51-0.16,1.02-0.32,1.51c-0.17,0.49-0.39,0.96-0.68,1.4
							c-0.08,0.11-0.15,0.22-0.23,0.32l-0.25,0.31c-0.09,0.1-0.19,0.19-0.28,0.28c-0.09,0.1-0.2,0.18-0.3,0.26
							c-0.42,0.33-0.89,0.59-1.39,0.76c-0.5,0.17-1.03,0.26-1.56,0.27c-0.53,0-1.06-0.08-1.57-0.27l-0.37-0.16
							c-0.12-0.06-0.24-0.13-0.36-0.2c-0.12-0.07-0.22-0.16-0.33-0.24c-0.06-0.04-0.11-0.09-0.16-0.14
							c-0.03-0.03-0.05-0.05-0.08-0.08l-0.07-0.09c-0.19-0.23-0.34-0.5-0.42-0.77c-0.09-0.28-0.12-0.56-0.13-0.83
							c-0.01-0.55,0.09-1.06,0.23-1.56c0.14-0.49,0.33-0.97,0.54-1.42c0.11-0.23,0.22-0.45,0.34-0.67c0.06-0.11,0.12-0.22,0.19-0.33
							c0.07-0.11,0.13-0.22,0.21-0.33l0.02,0.47l-0.62-0.75l-0.31-0.38c-0.12-0.15-0.23-0.31-0.32-0.47
							c-0.35-0.66-0.49-1.36-0.54-2.06c-0.04-0.7,0.03-1.4,0.2-2.07c0.17-0.68,0.46-1.34,0.9-1.91c0.44-0.59,1.02-1.02,1.63-1.36
							c0.31-0.17,0.63-0.31,0.95-0.43c0.33-0.12,0.66-0.21,1-0.28c1.35-0.28,2.8-0.15,4.01,0.44c0.07,0.03,0.09,0.11,0.06,0.18
							C36.26,42.66,36.21,42.69,36.15,42.68L36.15,42.68z"/>
					</g>
				</g>
			</g>
			<g>
				<g>
					<g>
						<path class="st150" d="M35.91,49.7c-0.01,0-0.03,0-0.04,0c-0.16-0.02-0.28-0.17-0.25-0.33c0.43-3.15-1.42-4.62-2.23-5.11
							c-1.29-0.78-2.88-0.88-3.78-0.23c-0.13,0.1-0.32,0.06-0.41-0.07c-0.1-0.13-0.06-0.32,0.07-0.41c1.1-0.79,2.92-0.7,4.43,0.21
							c0.91,0.55,2.98,2.2,2.51,5.7C36.18,49.59,36.06,49.7,35.91,49.7z"/>
					</g>
				</g>
			</g>
			<g>
				<g>
					<g>
						<path class="st150" d="M29.58,50.8l0.16,0.11l0.18,0.12c0.12,0.07,0.24,0.15,0.37,0.21c0.25,0.13,0.51,0.25,0.78,0.32
							c0.13,0.04,0.27,0.07,0.41,0.09c0.14,0.02,0.28,0.03,0.42,0.04c0.29,0.01,0.59-0.03,0.92-0.1c-0.21,0.26-0.51,0.46-0.84,0.57
							c-0.33,0.11-0.7,0.13-1.05,0.09c-0.35-0.04-0.69-0.14-1-0.28c-0.16-0.07-0.31-0.15-0.45-0.25c-0.07-0.05-0.14-0.09-0.21-0.15
							c-0.07-0.05-0.13-0.1-0.21-0.18c-0.16-0.15-0.17-0.4-0.02-0.56c0.13-0.14,0.35-0.16,0.51-0.06L29.58,50.8z"/>
					</g>
				</g>
			</g>
			<g>
				<g>
					<g>
						<path class="st0" d="M37.25,28.56c8.21-3.48,9.12-7.06,11.62-7.11c2.5-0.05,3.68,2.31,2.22,5.52
							c-2.4,5.28-11.49,5.86-11.49,5.86"/>
					</g>
				</g>
			</g>
			<g class="st152">
				<g>
					<g class="st155">
						<path class="st151" d="M51.09,26.97c-2.4,5.28-11.49,5.86-11.49,5.86h0c-0.22-0.4,0.01-0.9,0.45-0.99
							c2.72-0.56,7.52-2.02,9.53-5.54c0.82-1.44,1.13-3.04,1.02-4.39C51.81,22.75,52.15,24.63,51.09,26.97z"/>
					</g>
				</g>
			</g>
			<g>
				<g>
					<g>
						<path class="st150" d="M37.2,28.43c0.58-0.47,1.2-0.81,1.83-1.15c0.62-0.34,1.26-0.66,1.88-1.01c0.62-0.34,1.22-0.73,1.8-1.13
							c0.58-0.4,1.15-0.83,1.7-1.28c0.55-0.45,1.08-0.92,1.64-1.4c0.28-0.24,0.56-0.47,0.87-0.69c0.31-0.22,0.65-0.42,1.04-0.56
							c0.19-0.07,0.4-0.11,0.61-0.14c0.1-0.01,0.21-0.02,0.31-0.02c0.1,0,0.2,0,0.3,0.01c0.4,0.02,0.8,0.1,1.18,0.27
							c0.38,0.16,0.73,0.42,1,0.74c0.27,0.32,0.47,0.69,0.59,1.08c0.12,0.39,0.17,0.79,0.17,1.18c0,0.39-0.04,0.78-0.12,1.15
							c-0.08,0.38-0.19,0.74-0.32,1.09l-0.1,0.26l-0.11,0.26c-0.08,0.17-0.17,0.34-0.26,0.51c-0.37,0.67-0.85,1.27-1.4,1.79
							c-0.55,0.52-1.15,0.96-1.79,1.35c-1.28,0.76-2.66,1.29-4.07,1.69c-0.35,0.1-0.71,0.19-1.06,0.27
							c-0.36,0.08-0.71,0.17-1.07,0.25c-0.36,0.07-0.72,0.12-1.09,0.14c-0.37,0.01-0.74-0.01-1.12-0.13
							c-0.07-0.02-0.12-0.1-0.09-0.18c0.01-0.04,0.04-0.07,0.07-0.08l0.01,0c0.34-0.17,0.68-0.28,1.03-0.37
							c0.35-0.08,0.69-0.15,1.04-0.2c0.35-0.06,0.7-0.11,1.04-0.19c0.35-0.08,0.69-0.17,1.03-0.26c1.36-0.38,2.68-0.89,3.88-1.61
							c0.6-0.36,1.16-0.77,1.65-1.24c0.5-0.47,0.92-1.01,1.25-1.6c0.08-0.15,0.15-0.3,0.23-0.45l0.1-0.24l0.09-0.24
							c0.12-0.32,0.22-0.65,0.29-0.98c0.07-0.33,0.11-0.66,0.11-0.99c0-0.33-0.04-0.65-0.14-0.95c-0.09-0.3-0.24-0.57-0.43-0.8
							c-0.2-0.23-0.44-0.41-0.72-0.53c-0.28-0.13-0.59-0.19-0.91-0.21c-0.08-0.01-0.16,0-0.24-0.01c-0.08,0.01-0.15,0.01-0.23,0.02
							c-0.15,0.02-0.3,0.05-0.44,0.11c-0.58,0.2-1.13,0.65-1.67,1.11c-0.54,0.46-1.08,0.95-1.65,1.41c-0.56,0.46-1.15,0.9-1.75,1.32
							c-0.6,0.42-1.22,0.81-1.84,1.19c-0.62,0.38-1.26,0.74-1.93,1.04c-0.17,0.07-0.33,0.15-0.5,0.22
							c-0.17,0.07-0.34,0.13-0.51,0.19c-0.17,0.06-0.35,0.11-0.53,0.15c-0.18,0.04-0.36,0.08-0.55,0.1
							c-0.08,0.01-0.14-0.04-0.15-0.12C37.15,28.51,37.17,28.46,37.2,28.43z"/>
					</g>
				</g>
			</g>
			<g>
				<g>
					<g>
						<g>
							<path class="st0" d="M18.6,26.61c9.18,13.6,28.52,1.53,21.14-12.44C30.67,0.02,10.69,12.52,18.6,26.61z"/>
						</g>
					</g>
				</g>
				<g>
					<g>
						<g>
							<path class="st0" d="M18.6,26.61c9.18,13.6,28.52,1.53,21.14-12.44C30.67,0.02,10.69,12.52,18.6,26.61z"/>
						</g>
					</g>
				</g>
				<g>
					<g>
						<g class="st155">
							<path class="st151" d="M40.06,27.21c-0.31,0.57-0.67,1.11-1.07,1.62c-0.3,0.39-0.63,0.76-0.97,1.11
								c-2.99,3.02-7.47,4.55-11.75,3.47c-0.47-0.12-0.94-0.27-1.41-0.46c-2.24-0.89-4.37-2.55-6.13-5.16
								c-0.89-1.58-1.42-3.15-1.66-4.66c1.56,1.11,3.51,3.33,7.27,5.51c-0.03-0.16-0.06-0.33-0.1-0.49l13.47-0.92
								c0.24,0.27,0.46,0.54,0.68,0.81C38.98,27.77,39.53,27.49,40.06,27.21z"/>
						</g>
					</g>
				</g>
				<g>
					<g>
						<g>
							<path class="st0" d="M18.6,26.61c9.18,13.6,28.52,1.53,21.14-12.44C30.67,0.02,10.69,12.52,18.6,26.61z"/>
						</g>
					</g>
				</g>
				<g>
					<g>
						<g>
							<path class="st147" d="M28.94,32.85c-0.74,0-1.48-0.07-2.21-0.21c-3.3-0.63-6.2-2.66-8.36-5.87l-0.01-0.02
								c-1.88-3.35-2.34-6.86-1.32-10.13c0.91-2.92,2.92-5.44,5.68-7.09c2.75-1.65,5.9-2.23,8.87-1.63
								c3.35,0.67,6.25,2.79,8.39,6.12l0.01,0.02c1.76,3.33,2.14,6.79,1.11,10c-0.92,2.87-2.92,5.35-5.63,6.97
								C33.44,32.22,31.18,32.85,28.94,32.85z M18.84,26.46c4.6,6.81,11.52,6.94,16.34,4.06c4.71-2.82,8.07-9.1,4.32-16.21
								C34.98,7.27,27.78,7.14,23,10.01C18.18,12.9,14.82,19.29,18.84,26.46z"/>
						</g>
					</g>
				</g>
				<g class="st152">
					<g>
						<g>
							<path class="st163" d="M18.6,26.61c7.72,11.89,25.15,4.36,22.47-9c-0.56,4.41-2.06,4.67-4.24,7.02
								c-6.65,7.69-18.03,2.96-19.93-5.77C16.58,21.59,17.21,24.32,18.6,26.61z"/>
						</g>
					</g>
				</g>
				<g>
					<g>
						<g>
							<path class="st188" d="M28.94,32.96c-0.75,0-1.5-0.07-2.23-0.21c-3.33-0.64-6.25-2.68-8.43-5.92l-0.02-0.03
								c-1.9-3.38-2.36-6.92-1.33-10.22c0.92-2.95,2.95-5.49,5.73-7.15c2.77-1.66,5.95-2.25,8.95-1.65
								c3.38,0.68,6.31,2.81,8.46,6.17l0.02,0.03c1.77,3.36,2.16,6.85,1.12,10.09c-0.93,2.9-2.95,5.39-5.68,7.03
								C33.48,32.32,31.2,32.96,28.94,32.96z M18.93,26.4c4.56,6.74,11.41,6.88,16.19,4.02c4.66-2.79,7.99-9.01,4.28-16.06
								c-4.48-6.98-11.61-7.1-16.34-4.26C18.28,12.97,14.96,19.29,18.93,26.4z"/>
						</g>
					</g>
				</g>
				<g>
					<g>
						<g>
							<path class="st150" d="M28.94,32.96c-0.75,0-1.5-0.07-2.23-0.21c-3.33-0.64-6.25-2.68-8.43-5.92l-0.02-0.03
								c-1.9-3.38-2.36-6.92-1.33-10.22c0.92-2.95,2.95-5.49,5.73-7.15c2.77-1.66,5.95-2.25,8.95-1.65
								c3.38,0.68,6.31,2.81,8.46,6.17l0.02,0.03c1.77,3.36,2.16,6.85,1.12,10.09c-0.93,2.9-2.95,5.39-5.68,7.03
								C33.48,32.32,31.2,32.96,28.94,32.96z M18.93,26.4c4.56,6.74,11.41,6.88,16.19,4.02c4.66-2.79,7.99-9.01,4.28-16.06
								c-4.48-6.98-11.61-7.1-16.34-4.26C18.28,12.97,14.96,19.29,18.93,26.4z"/>
						</g>
					</g>
				</g>
				<g>
					<g>
						<g>
							<path class="st150" d="M20.56,29.07c12.41,7.32,22.94-7.16,13.53-15.56C22.97,4.75,10.5,18.41,20.56,29.07z"/>
						</g>
					</g>
				</g>
				<g class="st155">
					<g>
						<g>
							<path class="st161" d="M17.24,20.54c-0.05,13.02,18.57,14.11,20.57,2.21C31.84,29.76,20.73,26.84,17.24,20.54z"/>
						</g>
					</g>
				</g>
				<g>
					<g>
						<g>
							<path class="st150" d="M27.91,32.59c-0.87,0-1.74-0.11-2.59-0.33c-2.77-0.73-5.19-2.62-7.01-5.47l0,0
								c-2.98-4.74-2.46-12.47,3.04-16.42l0.05-0.03c2.99-1.45,6.61-1.55,9.93-0.27c3.32,1.28,5.93,3.76,7.16,6.81
								c1.12,2.99,1.07,6.01-0.13,8.75c-1.09,2.49-3.05,4.54-5.52,5.77C31.28,32.19,29.58,32.59,27.91,32.59z M18.89,26.43
								c4,6.26,9.85,6.27,13.65,4.37c4.37-2.18,7.6-7.58,5.32-13.66c-1.16-2.87-3.63-5.21-6.77-6.42c-3.14-1.21-6.55-1.12-9.36,0.23
								C16.56,14.67,16.08,21.96,18.89,26.43z"/>
						</g>
					</g>
				</g>
				<g>
					<g>
						<g>
							<path class="st150" d="M27.35,31.47c-2.3,0-4.68-0.7-6.99-2.06l-0.05-0.03l-0.04-0.04c-2.43-2.57-3.74-5.51-3.8-8.5
								c-0.05-2.67,0.91-5.23,2.72-7.2c1.76-1.93,4.15-3.09,6.73-3.29c2.86-0.22,5.77,0.77,8.42,2.86l0.02,0.02
								c2.21,1.97,3.49,4.4,3.71,7.03c0.2,2.38-0.5,4.8-1.96,6.8c-1.59,2.17-3.91,3.66-6.55,4.2
								C28.83,31.39,28.09,31.47,27.35,31.47z M20.81,28.76c6.33,3.71,11.92,1.58,14.66-2.17c2.49-3.41,2.95-8.68-1.63-12.77
								c-5.52-4.35-11.04-2.95-14.07,0.35C16.66,17.57,15.77,23.39,20.81,28.76z"/>
						</g>
					</g>
				</g>
				<g>
					<g>
						<g>
							<path class="st0" d="M43,22.77c-0.78,5.73-6.59,5.43-6.4-0.12C37.2,16.62,43.41,16.94,43,22.77z"/>
						</g>
					</g>
				</g>
				<g class="st155">
					<g>
						<g>
							<path class="st151" d="M39.37,26.96c-1.74-0.08-3.03-2.19-2.74-4.6c1.12,2.51,3.72-1.67,3.9-2.87
								C45.01,20.58,42.57,27.17,39.37,26.96z"/>
						</g>
					</g>
				</g>
				<g>
					<g>
						<g>
							<path class="st150" d="M39.51,27.34c-0.08,0-0.16,0-0.24-0.01c-1.6-0.14-3.17-1.64-3.07-4.69l0-0.03
								c0.33-3.31,2.33-4.89,4.13-4.74c1.63,0.14,3.28,1.74,3.05,4.92l0,0.03C42.96,25.97,41.12,27.34,39.51,27.34z M36.99,22.68
								c-0.09,2.52,1.12,3.76,2.35,3.86c1.3,0.11,2.88-1.03,3.27-3.81c0.18-2.64-1.08-3.96-2.33-4.07
								C38.86,18.54,37.28,19.88,36.99,22.68z M43,22.77L43,22.77L43,22.77z"/>
						</g>
					</g>
				</g>
				<g>
					<g>
						<g>
							<path class="st0" d="M43.23,23.09c-0.64,4.64-5,4.49-4.84,0C38.86,18.14,43.59,18.32,43.23,23.09z"/>
						</g>
					</g>
				</g>
				<g>
					<g>
						<g>
							<path class="st150" d="M40.53,26.86c-0.06,0-0.12,0-0.17-0.01c-1.21-0.1-2.4-1.31-2.31-3.77l0-0.02
								c0.26-2.75,1.82-4.07,3.22-3.95c1.25,0.11,2.5,1.41,2.3,4l0,0.02C43.21,25.73,41.78,26.86,40.53,26.86z M38.73,23.12
								c-0.07,2,0.8,2.98,1.69,3.05c0.97,0.09,2.16-0.86,2.47-3.12c0.16-2.13-0.76-3.18-1.68-3.26
								C40.15,19.7,38.95,20.81,38.73,23.12z M43.23,23.09L43.23,23.09L43.23,23.09z"/>
						</g>
					</g>
				</g>
				<g class="st160">
					<g>
						<g>
							<path class="st0" d="M35.46,20.17c-0.63,2.35-3.32,1.67-3.11-0.45C32.75,17.05,35.93,17.8,35.46,20.17z"/>
						</g>
					</g>
				</g>
				<g class="st160">
					<g>
						<g>
							<path class="st0" d="M34.08,23.87c-0.29,0.89-1.47,0.61-1.24-0.38C33.13,22.6,34.31,22.88,34.08,23.87z"/>
						</g>
					</g>
				</g>
				<g class="st160">
					<g>
						<g>
							<path class="st0" d="M18.53,21.45c-1.73-9.15,7.76-10.52,10.68-8.63C23.12,13.36,20.49,17.17,18.53,21.45z"/>
						</g>
					</g>
				</g>
				<g class="st155">
					<g>
						<g>
							<path class="st151" d="M38.17,24.15c-0.1-0.65-0.01-1.33,0.21-1.96c0.88,3.12,4.01,1.68,4.7-0.58
								C43.86,26.23,39.19,28.48,38.17,24.15z"/>
						</g>
					</g>
				</g>
			</g>
			<g>
				<g>
					<g>
						<g>
							<circle class="st0" cx="25.18" cy="37.86" r="1.34"/>
						</g>
					</g>
				</g>
				<g class="st155">
					<g>
						<g class="st155">
							<path class="st151" d="M23.85,37.96c0.06,0.74,0.7,1.29,1.43,1.23c0.74-0.06,1.29-0.7,1.23-1.43
								c-0.02-0.2-0.08-0.39-0.17-0.56c-0.18,0.47-0.62,0.81-1.15,0.85c-0.53,0.04-1.01-0.24-1.26-0.67
								C23.86,37.56,23.83,37.75,23.85,37.96z"/>
						</g>
					</g>
				</g>
				<g>
					<g>
						<g>
							<path class="st150" d="M25.18,39.53c-0.87,0-1.6-0.67-1.67-1.55c-0.03-0.45,0.11-0.88,0.4-1.22c0.29-0.34,0.7-0.55,1.15-0.58
								c0.45-0.03,0.88,0.11,1.22,0.4c0.34,0.29,0.55,0.7,0.58,1.15c0.07,0.92-0.62,1.73-1.55,1.8
								C25.26,39.53,25.22,39.53,25.18,39.53z M25.18,36.86c-0.02,0-0.05,0-0.08,0c-0.26,0.02-0.51,0.14-0.68,0.34
								c-0.17,0.2-0.26,0.46-0.24,0.72l0,0c0.04,0.55,0.52,0.96,1.07,0.92c0.55-0.04,0.96-0.52,0.92-1.07
								C26.13,37.26,25.69,36.86,25.18,36.86z"/>
						</g>
					</g>
				</g>
				<g>
					<g>
						<g>
							<path class="st0" d="M26.82,41.05l7.06-0.11c0.84-0.01,1.51-0.71,1.5-1.54l-0.06-3.76c-0.01-0.73-0.55-1.34-1.24-1.47
								c-0.1-0.02-0.2-0.03-0.3-0.03l-7.06,0.11c-0.84,0.01-1.51,0.71-1.5,1.54l0.05,2.97l0.01,0.78
								C25.29,40.39,25.98,41.07,26.82,41.05z"/>
						</g>
					</g>
				</g>
				<g>
					<g>
						<g>
							<path class="st165" d="M26.82,41.05l7.06-0.11c0.84-0.01,1.51-0.71,1.5-1.54l-0.06-3.76c-0.01-0.73-0.55-1.34-1.24-1.47
								c-0.4,0.27-0.65,0.45-0.65,0.45c-0.3,3.02-0.13,5.25-4.81,5.02c-1.61-0.08-2.7-0.54-3.35-0.86l0.01,0.78
								C25.29,40.39,25.98,41.07,26.82,41.05z"/>
						</g>
					</g>
				</g>
				<g>
					<g>
						<g>
							<path class="st150" d="M26.79,41.4c-1.01,0-1.84-0.82-1.86-1.83l-0.06-3.76c-0.02-1.03,0.81-1.87,1.83-1.89l7.06-0.11
								c1.02-0.02,1.87,0.81,1.89,1.83l0.06,3.76c0.01,0.5-0.18,0.97-0.53,1.32c-0.35,0.36-0.81,0.56-1.31,0.57l-7.06,0.11
								C26.81,41.4,26.8,41.4,26.79,41.4z M33.79,34.49c-0.01,0-0.01,0-0.02,0l-7.06,0.11c-0.31,0-0.61,0.13-0.83,0.36
								c-0.22,0.23-0.34,0.52-0.33,0.84l0.06,3.76c0,0.31,0.13,0.61,0.36,0.83c0.23,0.22,0.52,0.34,0.84,0.33l7.06-0.11
								c0.31,0,0.61-0.13,0.83-0.36c0.22-0.23,0.34-0.52,0.33-0.84l-0.06-3.76C34.96,35,34.43,34.49,33.79,34.49z"/>
						</g>
					</g>
				</g>
				<g>
					<g>
						<g>
							<path class="st0" d="M26.53,41.03c0.09,0.02,0.19,0.03,0.28,0.02l7.06-0.11c0.61-0.01,1.14-0.38,1.37-0.91
								c0.08-0.19,0.13-0.41,0.13-0.63l-0.03-1.67l-0.01-0.55l-0.02-1.54c-0.01-0.84-0.71-1.51-1.54-1.5l-1.53,0.02
								c0.71,0.12,1.25,0.73,1.26,1.47l0.03,2.03l0.03,1.73c0.01,0.84-0.66,1.53-1.5,1.54L26.53,41.03z"/>
						</g>
					</g>
				</g>
				<g class="st155">
					<g>
						<g>
							<path class="st151" d="M26.53,41.03c0.09,0.02,0.19,0.03,0.28,0.02l7.06-0.11c0.84-0.01,1.51-0.71,1.49-1.54l-0.03-2.22
								c-0.17,0.39-0.48,0.88-0.99,0.94c-0.28,0.03-0.56-0.16-0.81-0.45l0.03,1.73c0.01,0.84-0.66,1.53-1.5,1.54L26.53,41.03z"/>
						</g>
					</g>
				</g>
				<g>
					<g>
						<g>
							<path class="st150" d="M26.79,41.4c-0.1,0-0.21-0.01-0.31-0.03l0.06-0.68l5.54-0.09c0.31,0,0.61-0.13,0.83-0.36
								c0.22-0.23,0.34-0.52,0.33-0.84l-0.06-3.76c-0.01-0.57-0.42-1.05-0.98-1.14l0.05-0.68l1.52-0.02
								c0.5-0.01,0.97,0.18,1.32,0.53c0.36,0.35,0.56,0.81,0.57,1.31l0.06,3.76c0.01,0.5-0.18,0.97-0.53,1.32s-0.81,0.56-1.31,0.57
								l-7.06,0.11C26.81,41.4,26.8,41.4,26.79,41.4z M33.43,34.49c0.26,0.32,0.41,0.71,0.42,1.15l0.06,3.76
								c0.01,0.45-0.14,0.87-0.43,1.21l0.39-0.01c0.31,0,0.61-0.13,0.83-0.36c0.22-0.23,0.34-0.52,0.33-0.84v0l-0.06-3.76
								c0-0.31-0.13-0.61-0.36-0.83c-0.22-0.22-0.51-0.33-0.82-0.33c-0.01,0-0.01,0-0.02,0L33.43,34.49z"/>
						</g>
					</g>
				</g>
				<g>
					<g>
						<g>
							<path class="st0" d="M42.48,34.73c0,0,0.75,0.46,0.76,1.29c0.02,0.97-0.66,1.44-0.66,1.44s-2.31,1.68-7.68,1.35
								c0,0-1.36-1.42,0.21-2.5C35.11,36.31,40.02,37.11,42.48,34.73z"/>
						</g>
					</g>
				</g>
				<g class="st155">
					<g>
						<g>
							<path class="st151" d="M43.24,36C43.24,36,43.24,36,43.24,36c0.03,0.98-0.66,1.46-0.66,1.46s-2.31,1.68-7.68,1.35
								c0,0-1.04-1.09-0.25-2.08c0,0.01,0,0.01,0,0.02c0.1,0.6,0.63,1.05,1.24,1.07c4.86,0.15,6.97-1.39,6.97-1.39
								S43.06,36.28,43.24,36z"/>
						</g>
					</g>
				</g>
				<g>
					<g>
						<g>
							<path class="st150" d="M36.28,39.2c-0.44,0-0.9-0.01-1.39-0.04l-0.13-0.01l-0.09-0.1c-0.03-0.03-0.72-0.77-0.63-1.67
								c0.05-0.52,0.36-0.98,0.9-1.35l0.11-0.08l0.14,0.02c0.05,0.01,4.76,0.75,7.08-1.49l0.19-0.18l0.23,0.14
								c0.04,0.02,0.91,0.57,0.92,1.58c0.02,1.14-0.78,1.7-0.81,1.73C42.69,37.8,40.72,39.2,36.28,39.2z M35.07,38.48
								c5.05,0.28,7.29-1.28,7.31-1.3c0.02-0.02,0.54-0.4,0.52-1.16c-0.01-0.39-0.23-0.68-0.41-0.85c-2.39,2.04-6.47,1.61-7.3,1.49
								c-0.3,0.23-0.47,0.49-0.5,0.78C34.66,37.88,34.93,38.3,35.07,38.48z"/>
						</g>
					</g>
				</g>
			</g>
			<g>
				<g>
					<g>
						<path class="st150" d="M47.85,30.68c-0.01,0-0.02,0-0.03,0c-1.94-0.22-3.46-2.12-4.4-5.5c-0.02-0.06-0.03-0.11-0.04-0.13
							c-0.05-0.1-0.03-0.22,0.04-0.31c0.11-0.13,0.29-0.14,0.42-0.04c0.08,0.06,0.09,0.11,0.15,0.32c0.86,3.08,2.24,4.88,3.89,5.07
							c0.16,0.02,0.28,0.17,0.26,0.33C48.13,30.57,48,30.68,47.85,30.68z M43.46,25.15C43.46,25.15,43.46,25.15,43.46,25.15
							C43.46,25.15,43.46,25.15,43.46,25.15z M43.46,25.15C43.46,25.15,43.46,25.15,43.46,25.15
							C43.46,25.15,43.46,25.15,43.46,25.15z"/>
					</g>
				</g>
			</g>
			<g>
				<g>
					<g>
						<path class="st150" d="M19.37,44.72c0.1,0.1,0.18,0.19,0.26,0.29c0.08,0.1,0.16,0.2,0.23,0.3c0.15,0.2,0.29,0.41,0.42,0.62
							c0.13,0.21,0.24,0.43,0.35,0.66c0.11,0.23,0.19,0.46,0.26,0.7c0.03,0.1-0.03,0.21-0.13,0.25c-0.1,0.03-0.2-0.02-0.24-0.1
							l0-0.01c-0.1-0.21-0.2-0.41-0.33-0.6c-0.12-0.19-0.25-0.38-0.4-0.56c-0.14-0.18-0.29-0.35-0.45-0.51
							c-0.08-0.08-0.16-0.16-0.24-0.24c-0.08-0.07-0.17-0.15-0.25-0.21c-0.17-0.13-0.21-0.38-0.07-0.55
							c0.13-0.17,0.38-0.21,0.55-0.07C19.35,44.7,19.36,44.71,19.37,44.72z"/>
					</g>
				</g>
			</g>
		</g>
	</g>
	<g>
		<path class="st150" d="M30.28,35.96c0.31,0,0.56,0.26,0.56,0.58l0.01,1.27c0.01,0.78-0.59,1.41-1.33,1.42c-0.01,0-0.01,0-0.02,0
			c-0.73,0-1.33-0.64-1.34-1.41l-0.01-1.25c0-0.32,0.24-0.59,0.55-0.6L30.28,35.96 M30.28,35.64l-1.58,0.02
			c-0.49,0.01-0.88,0.42-0.87,0.92l0.01,1.25c0.01,0.95,0.76,1.73,1.67,1.73c0.01,0,0.02,0,0.03,0c0.92-0.01,1.66-0.8,1.65-1.75
			l-0.01-1.27C31.16,36.04,30.76,35.63,30.28,35.64L30.28,35.64z"/>
		<path class="st150" d="M29.67,36.9c0.16,0,0.29,0.13,0.29,0.29l0.01,0.63c0,0.13-0.05,0.25-0.14,0.34
			c-0.09,0.09-0.2,0.14-0.32,0.14c-0.01,0-0.01,0-0.02,0c-0.25-0.01-0.44-0.22-0.45-0.48l-0.01-0.62c0-0.16,0.13-0.3,0.28-0.3
			L29.67,36.9 M29.67,36.58l-0.35,0c-0.34,0-0.61,0.29-0.6,0.63l0.01,0.62c0,0.44,0.34,0.79,0.76,0.8c0.01,0,0.02,0,0.03,0
			c0.21,0,0.4-0.09,0.55-0.23c0.15-0.15,0.23-0.36,0.23-0.58l-0.01-0.63C30.29,36.85,30.01,36.57,29.67,36.58L29.67,36.58z"/>
		<path class="st150" d="M29.52,38.31l0,0.33c0.17,0,0.3,0.13,0.31,0.3s-0.13,0.3-0.3,0.31l0,0.33c0.35,0,0.62-0.29,0.62-0.63
			C30.15,38.58,29.86,38.3,29.52,38.31z"/>
		<path class="st150" d="M29.5,36.9l0-0.33c-0.17,0-0.3-0.13-0.31-0.3c0-0.17,0.13-0.3,0.3-0.31l0-0.33c-0.35,0-0.62,0.29-0.62,0.63
			S29.15,36.91,29.5,36.9z"/>
	</g>
</g>
</svg>
