<?xml version="1.0" encoding="UTF-8"?>
<svg width="1280px" height="995px" viewBox="0 0 1280 995" version="1.1" xmlns="http://www.w3.org/2000/svg" xmlns:xlink="http://www.w3.org/1999/xlink">
    <!-- Generator: sketchtool 55.2 (78181) - https://sketchapp.com -->
    <title>0731EB56-1467-4A8B-9D0A-8FE39BDFDFD2</title>
    <desc>Created with sketchtool.</desc>
    <g id="Landing-basico" stroke="none" stroke-width="1" fill="none" fill-rule="evenodd">
        <g id="Invitacion_correo" transform="translate(0.000000, -80.000000)">
            <g id="fondos_top" transform="translate(0.000000, 80.000000)">
                <path d="M94.5262865,1 C31.5087622,56.3161517 0,127.457244 0,214.423276 C0,344.872324 16.9106549,417.053606 393.178997,647.767491 C644.024559,801.576747 937.309113,917.320917 1273.03266,995 L1280,647.767491 L1280,1 L94.5262865,1 Z" id="fondo_gris" fill="#EDEDED" opacity="0.247628348"></path>
                <path d="M1017.00381,1.00046087 C879.667935,35.4817072 811,143.364737 811,324.649551 C811,505.934364 967.333333,601.051181 1280,610 L1280,0 L1017.00381,1.00046087 Z" id="fondo_amarillo" fill="#E0DF00" opacity="0.892206101"></path>
            </g>
        </g>
    </g>
</svg>